146/17722004
146/17722297

Power Systems (402)
402
18255920
146/17722265
18255914
18255916
18255918
146/17722597
18260932
18327284
18396813
18342090
146/17722550
18492969
1000024820
18255940
146/17722664
18378687
18255931
18409446
18255925
1000027740/1000027743
18255927
18260926
18375952
1000027740/1000027764
18260928
18260930
1000027740/1000027768
18434723
18378906
18434711
1000027740/1000027786
18434709
18434707
18434701
18434717
1000027740/1000027767
18434715
1000001926
18260932/1000001187
1000027740/1000027773
1000027740/1000027785
1000027740/1000027774
18260932/1000001191
1000027740/1000027775
1000027740/1000027776
1000027740/1000027809
1000027740/1000027810
1000027740/1000027813
1000027740/1000027814
18260932/1000001190
1000027740/1000027815
1000027740/1000027816
1000027740/1000027789
18260932/1000001234
1000027740/1000027790
1000027740/1000027791
18260932/1000001235
1000027740/1000027792
18260932/18489720
1000027740/1000027787
1000027740/1000027788
1000027740/1000027835
18260932/18331146
18260932/18331379
1000027740/1000027836
18260932/18321546
18260932/18332039
1000027740/1000027833
18260932/1000001060
1000027740/1000027834
18260932/18330406
18260932/18331799
1000027740/1000027811
18260932/18331919
1000027740/1000027812
18260932/1000024629
745/17745443
18260932/1000024718
18260932/18331264
1000009280/1000009279
18260932/18503929
18260932/18491839
1000009280/1000021781
18260932/18492095
18327284/18487630
1000007661/1000007663
18327284/18485403
1000007661/1000007662
18327284/18485342
18327284/18475658
1000007661/1000007664
18327284/18487391
18327284/18487627
18327284/18487642
1000007661/1000007665
18327284/18487639
17127279/17766626
18327284/18484958
17127279/17766838
18396813/1000001247
18396813/18596477
18342090/18596812
18342090/1000030380
18492969/18498220
18492969/18498371
1200/18032271
18492969/18499752
18492969/18498571
18492969/1000029352
1200/18171786
1000024820/1000024837
1200/18032281
1000024820/1000025596
1000024820/1000024819
1200/18045361
18255940/18374126
1200/18045383
1200/18045409
1200/18045427
18255940/1000003137
1200/18045437
1200/18032265
18255940/18377729
12/18075135
18255940/18279748
12/18075125
13/18075145
18255940/1000022860
13/18171746
13/18075163
18255940/18279848
13/18075205
13/18075235
19/1000027746
18255940/18374369
19/1000000718
79/17791367
18255940/18375173
18255940/18375224
17126492/17791017
185/1000027171
185/18100446
18255940/18375269
185/1000027242
18255940/18377762
185/1000027264
18378687/18391766
185/1000027220
18378687/18391802
185/1000027169
18378687/18391853
18378687/18391892
18378687/18391931
18378687/1000023943
185/1000027266
18378687/1000023946
18378687/18444686
185/1000027172
18378687/18392009
185/18100467
18378687/18392059
185/1000027241
18378687/18392109
185/1000027265
18378687/18396308
185/1000027240
18378687/18392152
185/1000027263
18378687/18391626
185/1000027261
18378687/18396452
185/1000027182
18378687/18396528
185/1000027286
18378687/18396581
185/1000027184
185/18100481
185/1000027260
18378687/18377764
185/18100495
185/1000027183
185/1000027267
18378687/18396631
185/1000027287
185/1000027170
18378687/18396700
185/18100505
18378687/18397086
185/1000027243
18378687/18397141
18378687/18377766
185/1000027163
18378687/18397966
185/1000027181
18378687/18397814
185/1000027223
18378687/18398034
185/1000027285
185/1000027224
18378687/18398100
18378687/18397893
185/1000027284
18378687/18398166
185/18100515
18378687/1000006966
185/1000027185
18378687/18398231
186/1000027298
186/1000027344
18378687/18398296
186/1000027343
186/18100525
18378687/18398361
186/1000027297
18378687/18398426
186/1000027307
18255931/18395426
18255931/18395494
18255931/18444432
186/18377826
18255931/1000003138
186/1000027314
186/1000027320
18255931/18395606
186/1000027363
18255931/18395688
18255931/18395733
186/1000027359
18255931/18395806
18255931/18395875
18255931/18395947
186/1000027321
18409446/18429688
186/1000027327
18409446/18429729
18409446/18405906
186/1000027338
18409446/18406038
18409446/18395646
18409446/18429639
186/1000027361
18409446/18595859
186/1000027296
18409446/18398491
186/1000027340
18409446/18398542
186/1000027341
18409446/18398592
186/1000027306
18409446/18398642
186/18100569
186/1000027315
186/1000027305
18409446/18398692
186/18100539
18409446/1000006969
186/1000027326
18255925/18378750
186/1000027362
18255925/18406768
186/1000027360
18255925/18405888
186/1000027328
18255925/18406867
186/1000027342
18255925/18407011
18255925/18407086
186/1000027365
18255927/18449959
18255927/18450293
186/1000027364
18255927/18450404
186/18383101
186/18100451
18255927/18450410
186/1000027339
18255927/18450647
18100453/18100646
18255927/18450767
188/18101585
18255927/18450893
188/18101365
18255927/18451014
188/18101599
18255927/18451119
18260926/1000015283
18260926/18367636
188/18101479
18260926/1000001073
18260926/18493417
188/18101613
18260926/18493267
188/18101493
18260926/18493993
188/18101549
18260926/18499457
188/18101627
188/18101507
18260926/18401118
188/18101567
188/18101650
18260926/18349729
188/18101521
18260926/18370846
188/18101573
188/18101664
18260926/18404461
188/18101535
18260926/18403988
18260926/18494376
188/18101579
18260926/18408926
18260926/18409526
661/18100747
661/18100761
18260926/18591264
661/18100875
18260926/18385954
18260926/18390306
661/18100858
118/18101422
118/18101436
18260926/18394026
118/18101366
118/18101394
18375952/1000023967
118/18101408
118/18101359
18375952/1000001667
1000009242/1000009241
1000009242/1000009240
18375952/18400510
18375952/18400772
18375952/18400706
18375952/1000015300
649/18100788
18375952/18494378
18375952/18494382
18375952/18494387
18375952/18408746
18260928/18474649
649/18100802
18260928/18414775
18260928/1000001095
649/18100816
18260928/18494395
18260928/18415746
649/18100830
18260928/1000015320
649/18100844
189/18100970
189/18100988
18260928/1000024700
189/18101026
18260928/18494397
189/18100928
18260928/18494399
189/18101012
18260928/18495302
189/18101046
18260928/18495304
189/18101040
18260928/18496738
18260928/18500250
189/18100953
18260928/18500276
18260928/18417046
18101798/18101806
18260928/18417368
18101798/18101820
18260928/18417692
18101798/18101834
18260928/18418386
18101798/18101848
190/18100699
18260930/18430246
18260930/1000015280
190/18100713
18260930/18501232
190/18100727
18260930/18501365
190/18100746
18260930/18501645
18260930/18501534
190/18100774
18260930/18430340
1000030348/1000028079
1000030348/1000028073
1000030348/1000028072
1000030348/1000028017
18260930/18432082
1000030348/1000028018
1000030348/1000028019
18260930/18432553
156/18078814
18260930/18483918
156/18348991
18434723/18440812
18434723/18441744
18434723/18442246
156/1000027660
18434723/18442354
156/18078832
18434723/18442880
156/1000027699
18434723/18442763
156/1000027690
18434723/18442992
156/1000027697
18434723/18443098
18434723/18443172
156/18585018
18434723/18443251
156/18078894
18434723/18443369
156/18585654
156/18078876
18434723/18443706
156/18078922
18434723/18443810
156/1000027691
18434723/18443940
156/18078838
18434723/18444186
156/1000027708
18434723/18444291
156/1000027698
18434723/18457059
156/1000027696
18434723/18457925
156/18585437
156/18078912
18434723/18458056
18434723/18458355
156/18585388
156/18078940
18434723/1000000844
1000027714/1000028829
18434723/1000000846
18434723/1000000847
1000027714/1000028040
18434723/1000000845
18434723/1000014260
1000027714/1000028042
1000027714/1000028043
1000027714/1000028833
18434723/1000014263
18378906/18457196
18378906/18457241
1000027714/1000028020
18378906/18457296
18378906/18457364
1000027714/1000028016
18378906/18457435
1000027714/1000028047
18378906/18457505
1000027714/1000028832
18434711/18446535
1000027714/1000028049
18434711/18445985
1000027714/1000028021
18434711/18446757
18434711/18445402
1000027714/1000028041
1000027714/1000028045
18434711/18436088
18434711/18445605
1000027714/1000028838
18434711/18457594
18434711/18447069
1000027714/1000028839
18434711/18447184
1000027714/1000028044
18434711/18500627
1000027714/1000028076
1000027714/1000028074
18434709/18448564
18434709/18494857
18434709/18448673
18434709/18495209
18434709/18494941
18434709/18448811
1000027714/1000028008
18434709/18495243
1000027714/1000028001
18434709/18448911
1000027714/1000028046
18434709/18495272
1000027714/1000028048
18434709/18448184
1000027714/1000028070
18434709/18447693
1000027714/1000028078
18434709/18447872
1000027714/1000028009
18434709/18448327
1000027714/1000028007
1000027714/1000027711
18434709/18448028
1000027714/1000028077
18434709/18448445
1000027714/1000030801
1000027714/1000028002
18434707/18550898
1000027714/1000028071
18434707/18550973
1000027714/1000028075
18434707/18551396
18434707/18552094
157/18078950
18434707/18552228
157/1000027662
157/18078964
157/18078986
18434707/18552354
157/1000027670
159/18079005
18434707/18457801
159/18079089
159/18079071
18434707/18552960
159/18079103
159/1000027661
159/1000027671
18434707/18553174
159/1000027669
159/18079057
18434701/18452045
159/1000027869
18434701/18452548
18434701/18452268
159/1000027678
18434701/18458886
160/18079153
18434701/18458728
167/18080733
167/18080975
18434701/18452388
167/1000026594
167/1000026576
18434701/18459039
167/18081085
167/18080789
18434701/18459192
167/18080825
18434701/18450066
167/1000026580
167/18081195
18434701/18449708
167/18080861
167/1000026592
167/18080915
167/18080901
18434701/18449218
167/1000026579
167/18081423
18434717/18502745
167/18080939
18434717/18504143
167/1000026593
18434717/18504305
167/18081312
18434715/1000004391
167/18376093
1000001926/1000001928
168/18086121
168/18086205
168/18086155
1000001926/1000011606
1000001926/1000011607
168/18086193
168/1000026605
1000001926/1000002940
168/18086630
402
18255920
1000001595
1000001595/1000021251

Attachments (405)
168/18086419
168/18086562
405
408
168/18086744
744
1000009278
1000007660
409
411
412
413
414
168/18086668
415
416
1000001481
417
625
457
419
420
421
168/18086770
422
17859567
1000025071
430
18016825
17126039
440
168/1000026610
753
1000009264
446
18438350
451
168/18086796
1000002920
146
168/18086706
17797133/1000008683
17797133/1000008680
1000027740
17797133/1000008684
745
17797133/1000008700
1000009280
1000007661
17797133/1000008701
17127279
17797133/1000008703
17797133/1000008702
1200
14053414/18082305
14053414/1000026613
12
14053414/18082475
14053414/18085651
14053414/18082333
13
14053414/18082503
19
14053414/1000026625
14053414/18082363
14053414/1000026616
79
17126492
14053414/18082553
185
14053414/18085857
186
14053414/18082391
18100453
188
14053414/1000026617
661
118
1000009242
649
189
18101798
190
14053414/18082825
1000030348
156
1000027714
157
14053414/18085887
159
160
167
168
14053414/18082419
17797133
14053414
14090213
14053414/1000026623
18087548
1000012585
14053414/18082851
1000021427
1000023032
14053414/18082447
25
27
614
29
14053414/1000026622
18376176
17516974
1000001490
1000001483
14053414/18082877
1000001496
1000019080
1000019200
14053414/18085917
1000019220
1000019661
1000008720
162
14053414/18348904
261
165
163
1000021786
14053414/1000026624
166
164
14053414/18082903
627
629
150
14053414/18085947
80
14090213/1000026638
14090213/1000026637
14090213/18085691
18441253
18596730
14090213/1000026643
14090213/1000026646
1000007520
14090213/1000026645
18496673
17859573
632
18375748
49
17519437
1000025077
1000025074
1000026423
13869258
18496675
17126041
14088906
754
1000009265
1000008541
1000008484
1000030440
149
14090213/1000026655
1000002922
146/17721951
146/17722043
18087548/18107428
146/17722004
1000012585/1000016031
146/17722297
1000012585/1000018140
146/17722265
146/17722597
1000012585/1000018807
146/17722550
1000012585/1000015762
146/17722664
1000012585/1000015861
1000027740/1000027743
1000012585/1000013060
1000027740/1000027764
1000012585/1000018735
1000027740/1000027768
1000012585/1000019520
1000027740/1000027786
1000027740/1000027767
1000027740/1000027773
1000012585/1000016026
1000027740/1000027785
1000027740/1000027774
1000027740/1000027775
1000012585/1000018801
1000027740/1000027776
1000027740/1000027809
1000027740/1000027810
1000027740/1000027813
1000027740/1000027814
1000012585/1000019523
1000027740/1000027815
1000012585/1000020260
1000027740/1000027816
1000012585/1000019581
1000012585/1000019305
1000027740/1000027789
1000012585/1000019302
1000027740/1000027790
1000027740/1000027791
1000012585/1000019521
1000027740/1000027792
1000027740/1000027787
1000027740/1000027788
1000027740/1000027835
1000012585/1000019585
1000027740/1000027836
1000027740/1000027833
1000012585/1000019400
1000027740/1000027834
1000012585/1000019420
1000012585/1000019584
1000027740/1000027811
1000012585/1000019582
1000027740/1000027812
1000012585/1000019443
745/17745443
1000009280/1000009279
1000009280/1000021781
1000007661/1000007663
1000012585/1000019441
1000007661/1000007662
1000012585/1000019442
1000007661/1000007664
1000012585/1000016020
1000007661/1000007665
1000012585/1000016022
17127279/17766626
1000012585/1000018722
17127279/17766838
1200/18032271
1200/18171786
1200/18032281
1000012585/1000016028
1200/18045361
1200/18045383
1200/18045409
1200/18045427
1000012585/1000015764
1200/18045437
1200/18032265
12/18075135
12/18075125
1000012585/1000016027
13/18075145
13/18171746
13/18075163
1000021427/1000022175
13/18075205
13/18075235
1000021427/1000022240
19/1000027746
1000021427/1000022321
19/1000000718
1000021427/1000022185
1000021427/1000022609
79/17791367
17126492/17791017
1000021427/1000022351
185/1000027171
1000021427/1000022318
185/18100446
185/1000027242
185/1000027264
1000021427/1000022202
1000021427/1000022610
1000021427/1000022587
185/1000027220
1000021427/1000022364
1000021427/1000022494
1000021427/1000022334
185/1000027169
185/1000027266
185/1000027172
1000021427/1000022617
185/18100467
185/1000027241
1000021427/1000022504
185/1000027265
1000021427/1000022495
185/1000027240
1000021427/1000022615
1000021427/1000022588
185/1000027263
185/1000027261
1000021427/1000022458
185/1000027182
1000021427/1000022630
185/1000027286
185/1000027184
1000021427/1000022629
185/18100481
1000021427/1000022633
185/1000027260
185/18100495
1000023032/1000023636
185/1000027183
185/1000027267
185/1000027287
1000023032/1000023849
185/1000027170
185/18100505
1000023032/1000023666
185/1000027243
185/1000027163
1000023032/1000023798
185/1000027181
185/1000027223
25/18235323
185/1000027285
185/1000027224
25/18235333
185/1000027284
185/18100515
25/18235351
185/1000027185
186/1000027298
25/18235361
186/1000027344
186/1000027343
27/18330554
186/18100525
27/18332160
186/1000027297
27/18239724
186/1000027307
27/18239770
186/18377826
27/18490112
186/1000027314
186/1000027320
27/18332174
186/1000027363
186/1000027359
186/1000027321
186/1000027327
27/18239866
27/18239832
186/1000027338
186/1000027361
27/18239814
186/1000027296
186/1000027340
27/18491281
27/18332185
186/1000027341
27/18490148
27/18491347
186/1000027306
27/18239906
186/18100569
27/18491325
186/1000027315
186/1000027305
27/18490189
186/18100539
186/1000027326
186/1000027362
186/1000027360
27/18332209
186/1000027328
186/1000027342
186/1000027365
186/1000027364
27/18491547
186/18383101
186/18100451
186/1000027339
18100453/18100646
188/18101585
188/18101365
188/18101599
27/18239842
188/18101479
188/18101613
27/18239940
188/18101493
188/18101549
188/18101627
27/18332215
188/18101507
188/18101567
188/18101650
27/18239959
188/18101521
188/18101573
27/18239852
188/18101664
27/18240384
188/18101535
27/18239884
27/18239978
27/18239996
188/18101579
27/18240410
661/18100747
661/18100761
27/18240344
661/18100875
661/18100858
118/18101422
118/18101436
118/18101366
118/18101394
118/18101408
27/18240014
118/18101359
1000009242/1000009241
1000009242/1000009240
649/18100788
27/18240366
649/18100802
649/18100816
27/18240032
27/18240054
649/18100830
649/18100844
27/18517221
189/18100970
189/18100988
27/18517173
27/18240096
189/18101026
189/18100928
27/18240146
27/18240114
189/18101012
27/18240164
189/18101046
27/18240086
189/18101040
189/18100953
27/18240196
27/18240226
27/18240186
18101798/18101806
27/18240256
27/18534087
27/18240246
18101798/18101820
27/18240236
18101798/18101834
27/18240294
18101798/18101848
27/18240306
190/18100699
27/18534122
27/18240316
27/18534136
190/18100713
27/1000025083
190/18100727
27/1000025098
190/18100746
190/18100774
1000030348/1000028079
1000030348/1000028073
1000030348/1000028072
1000030348/1000028017
1000030348/1000028018
27/1000025114
1000030348/1000028019
156/18078814
156/18348991
27/1000025137
156/1000027660
27/1000025080
156/18078832
156/1000027699
156/1000027690
27/1000025081
156/1000027697
156/18585018
27/1000025099
27/1000025101
156/18078894
27/1000025140
156/18585654
27/1000025128
156/18078876
27/1000025125
27/1000025082
27/1000025100
156/18078922
27/1000025139
156/1000027691
27/1000025126
156/18078838
27/1000025138
156/1000027708
27/1000025127
156/1000027698
27/1000025122
156/1000027696
27/1000025119
156/18585437
156/18078912
156/18585388
156/18078940
1000027714/1000028829
1000027714/1000028040
1000027714/1000028042
614/18429856
614/18429830
1000027714/1000028043
614/1000025191
1000027714/1000028833
1000027714/1000028020
614/18429867
1000027714/1000028016
1000027714/1000028047
614/1000025192
614/18429894
1000027714/1000028832
1000027714/1000028049
614/1000025197
1000027714/1000028021
614/1000025198
614/1000025204
1000027714/1000028041
1000027714/1000028045
614/1000025203
1000027714/1000028838
1000027714/1000028839
1000027714/1000028044
1000027714/1000028076
1000027714/1000028074
1000027714/1000028008
614/18470832
1000027714/1000028001
1000027714/1000028046
614/18243848
29/1000025245
1000027714/1000028048
29/1000025248
1000027714/1000028070
29/18488488
1000027714/1000028078
29/1000025257
1000027714/1000028009
29/18434237
1000027714/1000028007
29/1000025210
29/18488528
1000027714/1000027711
1000027714/1000028077
1000027714/1000030801
29/1000025220
1000027714/1000028002
1000027714/1000028071
1000027714/1000028075
29/1000025230
157/18078950
157/1000027662
157/18078964
29/1000025231
157/18078986
157/1000027670
159/18079005
29/1000025256
159/18079089
159/18079071
29/1000025254
159/18079103
159/1000027661
159/1000027671
159/1000027669
159/18079057
29/1000025255
159/1000027869
159/1000027678
160/18079153
167/18080733
29/1000025266
167/18080975
167/1000026594
167/1000026576
167/18081085
167/18080789
29/1000025267
29/1000025268
167/18080825
29/18434266
29/1000025209
167/1000026580
29/18488568
167/18081195
29/1000025219
167/18080861
29/1000025229
167/1000026592
167/18080915
29/1000025232
29/18434280
167/18080901
29/1000025211
167/1000026579
29/18488608
29/1000025218
167/18081423
29/1000025227
167/18080939
29/1000025228
167/1000026593
18376176/1000025277
167/18081312
18376176/18488356
167/18376093
18376176/18434403
168/18086121
18376176/1000025275
168/18086205
168/18086155
18376176/1000025284
168/18086193
168/1000026605
18376176/1000025285
168/18086630
168/18086419
168/18086562
18376176/1000025287
168/18086744
168/18086668
168/18086770
18376176/18434409
18376176/1000025276
18376176/1000025286
17516974/18239050
17516974/18517540
168/1000026610
1000001490/1000001559
1000001483/1000001630
1000001496/1000001600
168/18086796
1000019080/1000019160
168/18086706
1000019200/1000019640
17797133/1000008683
17797133/1000008680
17797133/1000008684
17797133/1000008700
17797133/1000008701
1000019200/1000019201
17797133/1000008703
1000019220/1000019221
17797133/1000008702
14053414/18082305
14053414/1000026613
1000019220/1000019620
14053414/18082475
1000019661/1000019660
14053414/18085651
14053414/18082333
1000019661/1000019680
14053414/18082503
1000008720/1000008721
1000008720/1000008722
14053414/1000026625
1000008720/1000008729
162/1000023334
14053414/18082363
162/1000023348
14053414/1000026616
162/17825708
14053414/18082553
162/1000023335
14053414/18085857
162/1000023349
14053414/18082391
162/17825846
14053414/1000026617
14053414/18082825
162/1000023332
14053414/18085887
14053414/18082419
162/1000023347
14053414/1000026623
14053414/18082851
14053414/18082447
162/17826032
14053414/1000026622
14053414/18082877
14053414/18085917
162/1000023336
14053414/18348904
14053414/1000026624
14053414/18082903
14053414/18085947
162/1000023350
14090213/1000026638
14090213/1000026637
14090213/18085691
162/17826245
14090213/1000026643
14090213/1000026646
14090213/1000026645
162/1000023333
14090213/1000026655
18087548/18107428
1000012585/1000016031
1000012585/1000018140
1000012585/1000018807
162/1000023351
162/17826435
1000012585/1000015762
261/1000023321
1000012585/1000015861
261/17831667
1000012585/1000013060
261/1000023320
1000012585/1000018735
1000012585/1000019520
261/17831961
1000012585/1000016026
1000012585/1000018801
261/1000023322
1000012585/1000019523
1000012585/1000020260
261/17832212
1000012585/1000019581
1000012585/1000019305
261/1000023323
1000012585/1000019302
261/17832464
1000012585/1000019521
165/1000023417
1000012585/1000019585
165/17828864
1000012585/1000019400
1000012585/1000019420
165/1000023420
1000012585/1000019584
1000012585/1000019582
165/17829192
1000012585/1000019443
1000012585/1000019441
1000012585/1000019442
165/17829520
1000012585/1000016020
165/17829848
1000012585/1000016022
1000012585/1000018722
163/17826613
1000012585/1000016028
1000012585/1000015764
163/17826803
1000021786/1000021784
1000021786/1000021785
1000012585/1000016027
166/1000023454
166/1000023446
1000021427/1000022175
166/17830176
166/1000023431
1000021427/1000022240
166/1000023455
1000021427/1000022321
166/1000023450
1000021427/1000022185
166/17830404
1000021427/1000022609
166/1000023435
1000021427/1000022351
166/1000023451
1000021427/1000022318
1000021427/1000022202
1000021427/1000022610
166/1000023448
1000021427/1000022587
166/17830696
1000021427/1000022364
1000021427/1000022494
166/1000023434
1000021427/1000022334
1000021427/1000022617
1000021427/1000022504
1000021427/1000022495
166/1000023453
1000021427/1000022615
1000021427/1000022588
1000021427/1000022458
1000021427/1000022630
166/1000023449
1000021427/1000022629
1000021427/1000022633
1000023032/1000023636
1000023032/1000023849
1000023032/1000023666
166/17830948
1000023032/1000023798
25/18235323
25/18235333
25/18235351
166/1000023433
25/18235361
27/18330554
166/1000023447
27/18332160
27/18239724
166/1000023452
27/18239770
27/18490112
27/18332174
166/17831200
27/18239866
27/18239832
27/18239814
27/18491281
166/1000023432
164/1000023416
27/18332185
27/18490148
164/17828105
27/18491347
27/18239906
27/18491325
164/1000023419
27/18490189
27/18332209
164/17828358
27/18491547
27/18239842
27/18239940
164/1000023418
27/18332215
164/17828611
627/18104046
27/18239959
629/18104098
27/18239852
150/18323453
27/18240384
27/18239884
150/18323261
27/18239978
150/18585122
27/18239996
27/18240410
27/18240344
150/18324836
27/18240014
27/18240366
27/18240032
150/18325059
27/18240054
27/18517221
27/18517173
27/18240096
150/18325266
27/18240146
27/18240114
27/18240164
150/18325465
27/18240086
27/18240196
27/18240226
80/18082185
27/18240186
27/18240256
27/18534087
27/18240246
18441253/18441303
27/18240236
27/18240294
27/18240306
18596730/18597007
27/18534122
27/18240316
27/18534136
27/1000025083
27/1000025098
1000007520/1000007523
27/1000025114
27/1000025137
27/1000025080
1000007520/1000007583
27/1000025081
1000007520/1000007580
18496673/18552624
18496673/18552626
17859573/17859593
632/18379582
27/1000025099
18375748/18379356
27/1000025101
18375748/1000020200
27/1000025140
49/18281564
27/1000025128
49/18281615
49/18281625
27/1000025125
27/1000025082
49/18529365
27/1000025100
49/18529397
27/1000025139
27/1000025126
17519437/1000024232
27/1000025138
27/1000025127
27/1000025122
17519437/17789311
27/1000025119
614/18429856
17519437/17789715
614/18429830
17519437/18111246
17519437/1000025644
614/1000025191
1000025077/1000024597
1000025077/1000024238
1000025077/1000024600
614/18429867
1000025077/1000024611
1000025077/1000024609
614/1000025192
1000025077/1000024610
614/18429894
1000025077/1000025900
1000025077/1000025903
1000025077/1000025904
614/1000025197
1000025074/1000024233
1000025074/17789513
614/1000025198
1000025074/18095511
614/1000025204
614/1000025203
1000025074/18095406
614/18470832
1000025074/1000024592
614/18243848
29/1000025245
1000025074/1000024239
29/1000025248
1000025074/18347958
29/18488488
29/1000025257
1000025074/1000024591
29/18434237
1000025074/18095461
29/1000025210
29/18488528
1000025074/18101867
29/1000025220
29/1000025230
1000025074/18379075
29/1000025231
1000025074/18095315
29/1000025256
1000025074/1000025912
29/1000025254
29/1000025255
29/1000025266
29/1000025267
29/1000025268
29/18434266
29/1000025209
29/18488568
1000025074/1000025920
1000025074/18095503
29/1000025219
1000025074/18095529
1000025074/18101903
29/1000025229
1000025074/1000025909
29/1000025232
1000025074/1000025927
1000025074/18095433
1000025074/1000025913
29/18434280
1000025074/1000025918
29/1000025211
1000025074/1000025919
29/18488608
1000025074/17791715
1000026423/1000009260
29/1000025218
1000026423/1000026426
29/1000025227
29/1000025228
18376176/1000025277
13869258/18327315
18376176/18488356
13869258/18327372
18376176/18434403
18376176/1000025275
13869258/18105966
18376176/1000025284
18376176/1000025285
18376176/1000025287
18376176/18434409
13869258/18106068
18376176/1000025276
13869258/18106326
18376176/1000025286
17516974/18239050
13869258/1000000571
17516974/18517540
1000001490/1000001559
13869258/1000000572
1000001483/1000001630
1000001496/1000001600
1000019080/1000019160
13869258/1000000569
1000019200/1000019640
1000019200/1000019201
1000019220/1000019221
13869258/18106482
1000019220/1000019620
1000019661/1000019660
1000019661/1000019680
13869258/1000000570
1000008720/1000008721
13869258/1000000581
13869258/18398746
1000008720/1000008722
13869258/1000003096
13869258/1000000521
13869258/18398882
1000008720/1000008729
13869258/1000003095
13869258/18399050
162/1000023334
13869258/1000003097
18496675/1000000428
162/1000023348
17126041/1000007000
17126041/1000007001
162/17825708
17126041/1000007007
162/1000023335
17126041/1000007006
162/1000023349
17126041/1000007008
162/17825846
17126041/1000007009
162/1000023332
14088906/1000027750
162/1000023347
14088906/17765463
162/17826032
14088906/1000027749
162/1000023336
162/1000023350
14088906/17765622
162/17826245
162/1000023333
14088906/17765781
162/1000023351
754/18369502
162/17826435
261/1000023321
261/17831667
754/18368383
261/1000023320
261/17831961
754/1000027900
261/1000023322
261/17832212
754/1000027903
261/1000023323
754/18369243
261/17832464
165/1000023417
754/18368666
165/17828864
754/18368925
165/1000023420
1000009265/1000009267
165/17829192
1000009265/1000009266
1000009265/1000009263
165/17829520
1000008541/1000008540
165/17829848
1000008541/1000008542
163/17826613
163/17826803
1000008541/1000008550
1000021786/1000021784
1000021786/1000021785
166/1000023454
1000008541/1000008557
166/1000023446
1000008541/1000008585
166/17830176
1000008541/1000008549
166/1000023431
1000008541/1000008558
166/1000023455
1000008541/1000008556
1000008541/1000008581
166/1000023450
1000008541/1000008583
166/17830404
1000008541/1000008555
166/1000023435
1000008541/1000008584
166/1000023451
1000008541/1000008582
1000008541/1000008580
166/1000023448
1000008484/1000008480
1000008484/1000008485
1000008484/1000008481
1000008484/1000008482
166/17830696
1000008484/1000009463
1000008484/1000009461
166/1000023434
1000008484/1000008486
166/1000023453
1000008484/1000008483
166/1000023449
1000008484/1000009462
166/17830948
1000008484/1000009460
166/1000023433
1000008484/1000009465
166/1000023447
1000008484/1000009464
166/1000023452
1000008484/1000009479
1000008484/1000009481
166/17831200
1000008484/1000009480
166/1000023432
1000008484/1000009478
164/1000023416
1000008484/1000028820
164/17828105
1000008484/1000028824
164/1000023419
1000008484/1000028823
164/17828358
164/1000023418
1000030440/1000026120
164/17828611
627/18104046
1000030440/1000026124
629/18104098
150/18323453
1000030440/1000026131
150/18323261
150/18585122
1000030440/1000026123
150/18324836
1000030440/1000026130
150/18325059
1000030440/1000026129
150/18325266
150/18325465
149/1000028234
80/18082185
18441253/18441303
18596730/18597007
149/1000028254
1000007520/1000007523
149/1000028255
1000007520/1000007583
1000007520/1000007580
18496673/18552624
149/17762965
18496673/18552626
17859573/17859593
632/18379582
149/1000028251
18375748/18379356
18375748/1000020200
49/18281564
49/18281615
49/18281625
149/1000028232
49/18529365
49/18529397
17519437/1000024232
149/1000028235
17519437/17789311
149/1000028252
17519437/17789715
17519437/18111246
149/1000028256
17519437/1000025644
1000025077/1000024597
1000025077/1000024238
149/1000028215
1000025077/1000024600
1000025077/1000024611
1000025077/1000024609
1000025077/1000024610
149/1000028253
1000025077/1000025900
1000025077/1000025903
1000025077/1000025904
149/1000028237
1000025074/1000024233
1000025074/17789513
1000025074/18095511
1000025074/18095406
1000025074/1000024592
149/1000028211
1000025074/1000024239
1000025074/18347958
1000025074/1000024591
1000025074/18095461
1000025074/18101867
1000025074/18379075
1000025074/18095315
1000025074/1000025912
1000025074/1000025920
149/1000028231
1000025074/18095503
1000025074/18095529
1000025074/18101903
1000025074/1000025909
1000025074/1000025927
1000025074/18095433
1000025074/1000025913
1000025074/1000025918
149/1000028230
1000025074/1000025919
1000025074/17791715
1000026423/1000009260
1000026423/1000026426
149/17763125
13869258/18327315
149/1000028221
149/1000028120
149/1000028218
13869258/18327372
149/1000028220
149/1000028219
13869258/18105966
149/17763357
13869258/18106068
1000002922/1000002921
405
13869258/18106326
409
415
18016825
13869258/1000000571
13869258/1000000572
17126039
12
13869258/1000000569
168
13869258/18106482
18496675
17126041
13869258/1000000570
13869258/1000000581
13869258/18398746
12/18515527
13869258/1000003096
168/18376046
13869258/1000000521
18496675/18552628
13869258/18398882
13869258/1000003095
13869258/18399050
18496675/18552630
13869258/1000003097
17126041/17758625
18496675/1000000428
17126041/1000007000
17126041/17758676
17126041/1000007001

Equipment (406)
17126041/1000007007
17126041/1000007006
406
455
471
17126041/1000007008
456
418
680
459
482
18265886
17126041/1000007009
18279532
18295650
14088906/1000027750
464
461
18312764
468
14088906/17765463
470
472
474
477
14088906/1000027749
478
480
481
13866077
14088906/17765622
484
14079132
483
14088906/17765781
476
281
754/18369502
13000583
754/18368383
754/1000027900
309
754/1000027903
270
754/18369243
283
754/18368666
754/18368925
1000009265/1000009267
17480622
1000009265/1000009266
1000009265/1000009263
1000008541/1000008540
289
1000008541/1000008542
1000008541/1000008550
288
1000008541/1000008557
1000008541/1000008585
290
1000008541/1000008549
1000008541/1000008558
262
1000008541/1000008556
1000008541/1000008581
1000008541/1000008583
1000008541/1000008555
1000008541/1000008584
323
1000008541/1000008582
1000008541/1000008580
1000008484/1000008480
1000008484/1000008485
1000008484/1000008481
1000008484/1000008482
1000008484/1000009463
1000008484/1000009461
1000008484/1000008486
1000008484/1000008483
1000008484/1000009462
1000008484/1000009460
1000008484/1000009465
1000008484/1000009464
1000008484/1000009479
1000008484/1000009481
1000008484/1000009480
1000008484/1000009478
1000008484/1000028820
1000008484/1000028824
322
1000008484/1000028823
1000030440/1000026120
1000030440/1000026124
1000030440/1000026131
1000030440/1000026123
1000030440/1000026130
1000030440/1000026129
149/1000028234
18265888
149/1000028254
18279534
149/1000028255
149/17762965
149/1000028251
149/1000028232
149/1000028235
149/1000028252
149/1000028256
149/1000028215
149/1000028253
149/1000028237
149/1000028211
18295653
149/1000028231
149/1000028230
149/17763125
149/1000028221
154
149/1000028120
149/1000028218
149/1000028220
149/1000028219
265
149/17763357
329
1000002922/1000002921
405
409
415
291
18016825
17126039
12
168
330
18496675
18312767
17126041
12/18515527
168/18376046
18496675/18552628
18496675/18552630
17126041/17758625
17126041/17758676

Equipment (406)
17268716
406
455
305
471
456
418
680
459
482
18265886
18279532
18295650
715
464
461
18312764
468
307
470
472
474
477
478
480
481
13866077
484
311
14079132
483
312
476
155
281
13000583
333
309
267
270
320
283
13866081
17480622
289
288
290
13866079
262
323
328
327
14080484
322
140
18265888
325
18279534
324
18295653
313
154
314
746
265
281/1000021682
329
291
281/1000001580
330
281/1000001576
18312767
281/1000001292
13000583/1000012261
13000583/1000001772
13000583/1000002898
309/1000012240
17268716
270/1000001744
305
283/18252346
283/18280522
715
283/18252506
17480622/1000005149
307
311
17480622/1000005148
312
155
17480622/18537402
333
267
17480622/18537887
289/18359786
289/1000024740
320
288/18349873
13866081
288/18547605
13866079
288/18547980
328
288/18548260
288/18502194
327
288/18502245
290/18230166
14080484
290/18339132
140
290/1000000175
262/1000005041
325
323/18315035
324
322/1000001318
313
314
322/18238486
746
281/1000021682
281/1000001580
322/18575000
281/1000001576
322/18332637
281/1000001292
13000583/1000012261
13000583/1000001772
322/1000030544
13000583/1000002898
18265888/18265906
309/1000012240
270/1000001744
18265888/18429930
283/18252346
18265888/18370146
283/18280522
18279534/18366358
283/18252506
17480622/1000005149
17480622/1000005148
18279534/18279626
17480622/18537402
18279534/18279648
18279534/1000028346
17480622/18537887
289/18359786
18295653/18295666
289/1000024740
18295653/18295903
288/18349873
18295653/18416406
288/18547605
288/18547980
288/18548260
288/18502194
154/1000019861
288/18502245
290/18230166
290/18339132
154/1000019862
290/1000000175
265/18512591
329/1000025882
262/1000005041
329/1000009980
323/18315035
329/1000021961
322/1000001318
329/1000009563
322/18238486
291/18577904
322/18575000
291/1000000349
322/18332637
291/18592996
322/1000030544
18265888/18265906
291/1000000255
18265888/18429930
18265888/18370146
330/14133735
330/18015786
18279534/18366358
18312767/1000012100
18279534/18279626
18279534/18279648
18279534/1000028346
18312767/18436200
18295653/18295666
18295653/18295903
18312767/18316373
18295653/18416406
154/1000019861
154/1000019862
265/18512591
18312767/18560111
329/1000025882
329/1000009980
329/1000021961
329/1000009563
18312767/18313392
291/18577904
291/1000000349
18312767/18490663
291/18592996
17268716/18375106
291/1000000255
17268716/18375116
330/14133735
17268716/18375118
330/18015786
18312767/1000012100
17268716/18375120
18312767/18436200
305/18506722
18312767/18316373
305/18341590
18312767/18560111
305/1000023263
18312767/18313392
305/1000007681
18312767/18490663
715/18089787
17268716/18375106
715/18089285
17268716/18375116
715/18107706
17268716/18375118
17268716/18375120
715/18232553
305/18506722
715/18092621
715/18093014
305/18341590
307/18549188
305/1000023263
307/18256248
305/1000007681
307/18256812
307/16919736
715/18089787
307/1000030400
715/18089285
311/18371286
715/18107706
311/1000006003
715/18232553
715/18092621
311/1000004496
715/18093014
311/1000004495
307/18549188
312/18244506
307/18256248
155/17818596
307/18256812
155/1000005145
155/18543170
307/16919736
155/18544426
155/18545743
307/1000030400
155/18546249
311/18371286
333/17831465
311/1000006003
267/18479404
267/18479400
311/1000004496
267/18479402
320/14129604
311/1000004495
13866081/18192466
13866081/18509152
312/18244506
13866081/18233686
155/17818596
13866081/18234906
155/1000005145
155/18543170
13866081/18348371
155/18544426
13866079/17796875
155/18545743
13866079/18178846
155/18546249
13866079/18349061
328/14139182
333/17831465
328/18591262
327/18483684
267/18479404
267/18479400
267/18479402
327/18580971
320/14129604
327/18460666
13866081/18192466
13866081/18509152
14080484/18534112
13866081/18233686
13866081/18234906
140/18577576
13866081/18348371
13866079/17796875
325/18548328
13866079/18178846
325/18384155
13866079/18349061
325/18495203
328/14139182
324/18589879
328/18591262
324/18438276
327/18483684
327/18580971
324/18580422
327/18460666
324/18568699
14080484/18534112
324/18266766
140/18577576
324/18194126
325/18548328
324/1000028683
325/18384155
324/18366798
325/18495203
324/18589879
324/1000001147
324/18438276
313/17745745
324/18580422
313/1000024175
314/18576198
324/18568699
746/18576136
324/18266766
746/18576180
324/18194126
746/1000020940
746/1000021430
324/1000028683
406
456
324/18366798
680
482
18279532
464
467
470
472
477
324/1000001147
13866077
18315821
483
476
272
313/17745745
17480622
313/1000024175
262
314/18576198
323
746/18576136
746/18576180
746/1000020940
322
746/1000021430
406
456
680
482
335
18279532
464
467
470
472
477
13866077
18315821
483
476
272
18279534
17480622
262
323
154
322
292
335
302
715
18279534
311
155
13866081
154
13866079
18317435
18316803
18315847
292
18316856
18316486
302
18317575
715
18317895
311
155
140
13866081
13866079
18317435
263
18316803
18315847
18316856
325
18316486
746
18317575
18317895
272/18400328
140
272/18400330
263
17480622/17824655
325
17480622/17517326
746
17480622/17517328
272/18400328
272/18400330
17480622/17517330
17480622/17824655
262/14140067
17480622/17517326
262/14140069
17480622/17517328
323/752787
17480622/17517330
323/752788
322/752769
262/14140067
262/14140069
322/18297074
323/752787
335/752909
335/752910
323/752788
18279534/18279637
322/752769
322/18297074
154/18321886
335/752909
154/1000001057
335/752910
154/17434486
18279534/18279637
292/751871
292/751874
154/18321886
154/1000001057
154/17434486
292/751870
292/751871
292/751868
292/751869
292/751875
292/751874
302/1000006209
715/18491041
292/751870
311/13235031
292/751868
155/18286393
292/751869
292/751875
155/18273026
302/1000006209
13866081/13894254
715/18491041
13866079/13894244
13866079/18192446
311/13235031
18317435/18317489
155/18286393
18317435/18317502
18316803/18316828
155/18273026
18316803/18316843
18315847/18315869
13866081/13894254
18315847/18315903
13866079/13894244
18315847/18315850
18315847/18316087
13866079/18192446
18315847/18316166
18317435/18317489
18315847/18316216
18317435/18317502
18316803/18316828
18316803/18316843
18315847/18315869
18315847/18361906
18315847/18315903
18315847/18315850
18315847/18316087
18315847/18316166
18316856/18317150
18315847/18316216
18315847/18361906
18316486/18316685
18316856/18317150
18316486/18316761
18316486/18316494
18317575/18317749
18316486/18316685
18316486/18316761
18316486/18316494
18317575/18317749
18317575/18406506
18317575/18406506
18317575/18317803
18317575/18317803
18317575/18378439
18317575/18378439
18317895/18375846
18317895/18361926
18317895/18375846
18317895/18318042
18317895/18361926
18317895/18318113
18317895/18318042
140/18350910
18317895/18318113
140/18351213
140/18350910
140/18351423
263/18466709
140/18351213
263/18467233
263/18467930
140/18351423
325/1000027523
746/752590


Deleted: /home/skyshi/devdefault/trakindo/dev_drupal/sites/default/files/product_xml/unprocessed/en/402/18255914_en.xml
Deleted: /home/skyshi/devdefault/trakindo/dev_drupal/sites/default/files/product_xml/unprocessed/en/402/18255916_en.xml
Deleted: /home/skyshi/devdefault/trakindo/dev_drupal/sites/default/files/product_xml/unprocessed/en/402/18255918_en.xml
Deleted: /home/skyshi/devdefault/trakindo/dev_drupal/sites/default/files/product_xml/unprocessed/en/402/18255920_en.xml
Deleted: /home/skyshi/devdefault/trakindo/dev_drupal/sites/default/files/product_xml/unprocessed/en/405/1000001481_en.xml
Deleted: /home/skyshi/devdefault/trakindo/dev_drupal/sites/default/files/product_xml/unprocessed/en/405/1000002920_en.xml
Deleted: /home/skyshi/devdefault/trakindo/dev_drupal/sites/default/files/product_xml/unprocessed/en/405/1000007660_en.xml
Deleted: /home/skyshi/devdefault/trakindo/dev_drupal/sites/default/files/product_xml/unprocessed/en/405/1000009264_en.xml
Deleted: /home/skyshi/devdefault/trakindo/dev_drupal/sites/default/files/product_xml/unprocessed/en/405/1000009278_en.xml
Deleted: /home/skyshi/devdefault/trakindo/dev_drupal/sites/default/files/product_xml/unprocessed/en/405/1000025071_en.xml
Deleted: /home/skyshi/devdefault/trakindo/dev_drupal/sites/default/files/product_xml/unprocessed/en/405/17126039_en.xml
Deleted: /home/skyshi/devdefault/trakindo/dev_drupal/sites/default/files/product_xml/unprocessed/en/405/17859567_en.xml
Deleted: /home/skyshi/devdefault/trakindo/dev_drupal/sites/default/files/product_xml/unprocessed/en/405/18016825_en.xml
Deleted: /home/skyshi/devdefault/trakindo/dev_drupal/sites/default/files/product_xml/unprocessed/en/405/18438350_en.xml
Deleted: /home/skyshi/devdefault/trakindo/dev_drupal/sites/default/files/product_xml/unprocessed/en/405/408_en.xml
Deleted: /home/skyshi/devdefault/trakindo/dev_drupal/sites/default/files/product_xml/unprocessed/en/405/409_en.xml
Deleted: /home/skyshi/devdefault/trakindo/dev_drupal/sites/default/files/product_xml/unprocessed/en/405/411_en.xml
Deleted: /home/skyshi/devdefault/trakindo/dev_drupal/sites/default/files/product_xml/unprocessed/en/405/412_en.xml
Deleted: /home/skyshi/devdefault/trakindo/dev_drupal/sites/default/files/product_xml/unprocessed/en/405/413_en.xml
Deleted: /home/skyshi/devdefault/trakindo/dev_drupal/sites/default/files/product_xml/unprocessed/en/405/414_en.xml
Deleted: /home/skyshi/devdefault/trakindo/dev_drupal/sites/default/files/product_xml/unprocessed/en/405/415_en.xml
Deleted: /home/skyshi/devdefault/trakindo/dev_drupal/sites/default/files/product_xml/unprocessed/en/405/416_en.xml
Deleted: /home/skyshi/devdefault/trakindo/dev_drupal/sites/default/files/product_xml/unprocessed/en/405/417_en.xml
Deleted: /home/skyshi/devdefault/trakindo/dev_drupal/sites/default/files/product_xml/unprocessed/en/405/419_en.xml
Deleted: /home/skyshi/devdefault/trakindo/dev_drupal/sites/default/files/product_xml/unprocessed/en/405/420_en.xml
Deleted: /home/skyshi/devdefault/trakindo/dev_drupal/sites/default/files/product_xml/unprocessed/en/405/421_en.xml
Deleted: /home/skyshi/devdefault/trakindo/dev_drupal/sites/default/files/product_xml/unprocessed/en/405/422_en.xml
Deleted: /home/skyshi/devdefault/trakindo/dev_drupal/sites/default/files/product_xml/unprocessed/en/405/430_en.xml
Deleted: /home/skyshi/devdefault/trakindo/dev_drupal/sites/default/files/product_xml/unprocessed/en/405/440_en.xml
Deleted: /home/skyshi/devdefault/trakindo/dev_drupal/sites/default/files/product_xml/unprocessed/en/405/446_en.xml
Deleted: /home/skyshi/devdefault/trakindo/dev_drupal/sites/default/files/product_xml/unprocessed/en/405/451_en.xml
Deleted: /home/skyshi/devdefault/trakindo/dev_drupal/sites/default/files/product_xml/unprocessed/en/405/457_en.xml
Deleted: /home/skyshi/devdefault/trakindo/dev_drupal/sites/default/files/product_xml/unprocessed/en/405/625_en.xml
Deleted: /home/skyshi/devdefault/trakindo/dev_drupal/sites/default/files/product_xml/unprocessed/en/405/744_en.xml
Deleted: /home/skyshi/devdefault/trakindo/dev_drupal/sites/default/files/product_xml/unprocessed/en/405/753_en.xml
Deleted: /home/skyshi/devdefault/trakindo/dev_drupal/sites/default/files/product_xml/unprocessed/en/406/13866077_en.xml
Deleted: /home/skyshi/devdefault/trakindo/dev_drupal/sites/default/files/product_xml/unprocessed/en/406/14079132_en.xml
Deleted: /home/skyshi/devdefault/trakindo/dev_drupal/sites/default/files/product_xml/unprocessed/en/406/18265886_en.xml
Deleted: /home/skyshi/devdefault/trakindo/dev_drupal/sites/default/files/product_xml/unprocessed/en/406/18279532_en.xml
Deleted: /home/skyshi/devdefault/trakindo/dev_drupal/sites/default/files/product_xml/unprocessed/en/406/18295650_en.xml
Deleted: /home/skyshi/devdefault/trakindo/dev_drupal/sites/default/files/product_xml/unprocessed/en/406/18312764_en.xml
Deleted: /home/skyshi/devdefault/trakindo/dev_drupal/sites/default/files/product_xml/unprocessed/en/406/18315821_en.xml
Deleted: /home/skyshi/devdefault/trakindo/dev_drupal/sites/default/files/product_xml/unprocessed/en/406/418_en.xml
Deleted: /home/skyshi/devdefault/trakindo/dev_drupal/sites/default/files/product_xml/unprocessed/en/406/455_en.xml
Deleted: /home/skyshi/devdefault/trakindo/dev_drupal/sites/default/files/product_xml/unprocessed/en/406/456_en.xml
Deleted: /home/skyshi/devdefault/trakindo/dev_drupal/sites/default/files/product_xml/unprocessed/en/406/459_en.xml
Deleted: /home/skyshi/devdefault/trakindo/dev_drupal/sites/default/files/product_xml/unprocessed/en/406/461_en.xml
Deleted: /home/skyshi/devdefault/trakindo/dev_drupal/sites/default/files/product_xml/unprocessed/en/406/464_en.xml
Deleted: /home/skyshi/devdefault/trakindo/dev_drupal/sites/default/files/product_xml/unprocessed/en/406/467_en.xml
Deleted: /home/skyshi/devdefault/trakindo/dev_drupal/sites/default/files/product_xml/unprocessed/en/406/468_en.xml
Deleted: /home/skyshi/devdefault/trakindo/dev_drupal/sites/default/files/product_xml/unprocessed/en/406/470_en.xml
Deleted: /home/skyshi/devdefault/trakindo/dev_drupal/sites/default/files/product_xml/unprocessed/en/406/471_en.xml
Deleted: /home/skyshi/devdefault/trakindo/dev_drupal/sites/default/files/product_xml/unprocessed/en/406/472_en.xml
Deleted: /home/skyshi/devdefault/trakindo/dev_drupal/sites/default/files/product_xml/unprocessed/en/406/474_en.xml
Deleted: /home/skyshi/devdefault/trakindo/dev_drupal/sites/default/files/product_xml/unprocessed/en/406/476_en.xml
Deleted: /home/skyshi/devdefault/trakindo/dev_drupal/sites/default/files/product_xml/unprocessed/en/406/477_en.xml
Deleted: /home/skyshi/devdefault/trakindo/dev_drupal/sites/default/files/product_xml/unprocessed/en/406/478_en.xml
Deleted: /home/skyshi/devdefault/trakindo/dev_drupal/sites/default/files/product_xml/unprocessed/en/406/480_en.xml
Deleted: /home/skyshi/devdefault/trakindo/dev_drupal/sites/default/files/product_xml/unprocessed/en/406/481_en.xml
Deleted: /home/skyshi/devdefault/trakindo/dev_drupal/sites/default/files/product_xml/unprocessed/en/406/482_en.xml
Deleted: /home/skyshi/devdefault/trakindo/dev_drupal/sites/default/files/product_xml/unprocessed/en/406/483_en.xml
Deleted: /home/skyshi/devdefault/trakindo/dev_drupal/sites/default/files/product_xml/unprocessed/en/406/484_en.xml
Deleted: /home/skyshi/devdefault/trakindo/dev_drupal/sites/default/files/product_xml/unprocessed/en/406/680_en.xml263/18466709
263/18467233
263/18467930
325/1000027523
746/752590


Deleted: /home/skyshi/devdefault/trakindo/dev_drupal/sites/default/files/product_xml/unprocessed/en/402/18255914_en.xml
Deleted: /home/skyshi/devdefault/trakindo/dev_drupal/sites/default/files/product_xml/unprocessed/en/402/18255916_en.xml
Deleted: /home/skyshi/devdefault/trakindo/dev_drupal/sites/default/files/product_xml/unprocessed/en/402/18255918_en.xml
Deleted: /home/skyshi/devdefault/trakindo/dev_drupal/sites/default/files/product_xml/unprocessed/en/402/18255920_en.xml
Deleted: /home/skyshi/devdefault/trakindo/dev_drupal/sites/default/files/product_xml/unprocessed/en/405/1000001481_en.xml
Deleted: /home/skyshi/devdefault/trakindo/dev_drupal/sites/default/files/product_xml/unprocessed/en/405/1000002920_en.xml
Deleted: /home/skyshi/devdefault/trakindo/dev_drupal/sites/default/files/product_xml/unprocessed/en/405/1000007660_en.xml
Deleted: /home/skyshi/devdefault/trakindo/dev_drupal/sites/default/files/product_xml/unprocessed/en/405/1000009264_en.xml
Deleted: /home/skyshi/devdefault/trakindo/dev_drupal/sites/default/files/product_xml/unprocessed/en/405/1000009278_en.xml
Deleted: /home/skyshi/devdefault/trakindo/dev_drupal/sites/default/files/product_xml/unprocessed/en/405/1000025071_en.xml
Deleted: /home/skyshi/devdefault/trakindo/dev_drupal/sites/default/files/product_xml/unprocessed/en/405/17126039_en.xml
Deleted: /home/skyshi/devdefault/trakindo/dev_drupal/sites/default/files/product_xml/unprocessed/en/405/17859567_en.xml
Deleted: /home/skyshi/devdefault/trakindo/dev_drupal/sites/default/files/product_xml/unprocessed/en/405/18016825_en.xml
Deleted: /home/skyshi/devdefault/trakindo/dev_drupal/sites/default/files/product_xml/unprocessed/en/405/18438350_en.xml
Deleted: /home/skyshi/devdefault/trakindo/dev_drupal/sites/default/files/product_xml/unprocessed/en/405/408_en.xml
Deleted: /home/skyshi/devdefault/trakindo/dev_drupal/sites/default/files/product_xml/unprocessed/en/405/409_en.xml
Deleted: /home/skyshi/devdefault/trakindo/dev_drupal/sites/default/files/product_xml/unprocessed/en/405/411_en.xml
Deleted: /home/skyshi/devdefault/trakindo/dev_drupal/sites/default/files/product_xml/unprocessed/en/405/412_en.xml
Deleted: /home/skyshi/devdefault/trakindo/dev_drupal/sites/default/files/product_xml/unprocessed/en/405/413_en.xml
Deleted: /home/skyshi/devdefault/trakindo/dev_drupal/sites/default/files/product_xml/unprocessed/en/405/414_en.xml
Deleted: /home/skyshi/devdefault/trakindo/dev_drupal/sites/default/files/product_xml/unprocessed/en/405/415_en.xml
Deleted: /home/skyshi/devdefault/trakindo/dev_drupal/sites/default/files/product_xml/unprocessed/en/405/416_en.xml
Deleted: /home/skyshi/devdefault/trakindo/dev_drupal/sites/default/files/product_xml/unprocessed/en/405/417_en.xml
Deleted: /home/skyshi/devdefault/trakindo/dev_drupal/sites/default/files/product_xml/unprocessed/en/405/419_en.xml
Deleted: /home/skyshi/devdefault/trakindo/dev_drupal/sites/default/files/product_xml/unprocessed/en/405/420_en.xml
Deleted: /home/skyshi/devdefault/trakindo/dev_drupal/sites/default/files/product_xml/unprocessed/en/405/421_en.xml
Deleted: /home/skyshi/devdefault/trakindo/dev_drupal/sites/default/files/product_xml/unprocessed/en/405/422_en.xml
Deleted: /home/skyshi/devdefault/trakindo/dev_drupal/sites/default/files/product_xml/unprocessed/en/405/430_en.xml
Deleted: /home/skyshi/devdefault/trakindo/dev_drupal/sites/default/files/product_xml/unprocessed/en/405/440_en.xml
Deleted: /home/skyshi/devdefault/trakindo/dev_drupal/sites/default/files/product_xml/unprocessed/en/405/446_en.xml
Deleted: /home/skyshi/devdefault/trakindo/dev_drupal/sites/default/files/product_xml/unprocessed/en/405/451_en.xml
Deleted: /home/skyshi/devdefault/trakindo/dev_drupal/sites/default/files/product_xml/unprocessed/en/405/457_en.xml
Deleted: /home/skyshi/devdefault/trakindo/dev_drupal/sites/default/files/product_xml/unprocessed/en/405/625_en.xml
Deleted: /home/skyshi/devdefault/trakindo/dev_drupal/sites/default/files/product_xml/unprocessed/en/405/744_en.xml
Deleted: /home/skyshi/devdefault/trakindo/dev_drupal/sites/default/files/product_xml/unprocessed/en/405/753_en.xml
Deleted: /home/skyshi/devdefault/trakindo/dev_drupal/sites/default/files/product_xml/unprocessed/en/406/13866077_en.xml
Deleted: /home/skyshi/devdefault/trakindo/dev_drupal/sites/default/files/product_xml/unprocessed/en/406/14079132_en.xml
Deleted: /home/skyshi/devdefault/trakindo/dev_drupal/sites/default/files/product_xml/unprocessed/en/406/18265886_en.xml
Deleted: /home/skyshi/devdefault/trakindo/dev_drupal/sites/default/files/product_xml/unprocessed/en/406/18279532_en.xml
Deleted: /home/skyshi/devdefault/trakindo/dev_drupal/sites/default/files/product_xml/unprocessed/en/406/18295650_en.xml
Deleted: /home/skyshi/devdefault/trakindo/dev_drupal/sites/default/files/product_xml/unprocessed/en/406/18312764_en.xml
Deleted: /home/skyshi/devdefault/trakindo/dev_drupal/sites/default/files/product_xml/unprocessed/en/406/18315821_en.xml
Deleted: /home/skyshi/devdefault/trakindo/dev_drupal/sites/default/files/product_xml/unprocessed/en/406/418_en.xml
Deleted: /home/skyshi/devdefault/trakindo/dev_drupal/sites/default/files/product_xml/unprocessed/en/406/455_en.xml
Deleted: /home/skyshi/devdefault/trakindo/dev_drupal/sites/default/files/product_xml/unprocessed/en/406/456_en.xml
Deleted: /home/skyshi/devdefault/trakindo/dev_drupal/sites/default/files/product_xml/unprocessed/en/406/459_en.xml
Deleted: /home/skyshi/devdefault/trakindo/dev_drupal/sites/default/files/product_xml/unprocessed/en/406/461_en.xml
Deleted: /home/skyshi/devdefault/trakindo/dev_drupal/sites/default/files/product_xml/unprocessed/en/406/464_en.xml
Deleted: /home/skyshi/devdefault/trakindo/dev_drupal/sites/default/files/product_xml/unprocessed/en/406/467_en.xml
Deleted: /home/skyshi/devdefault/trakindo/dev_drupal/sites/default/files/product_xml/unprocessed/en/406/468_en.xml
Deleted: /home/skyshi/devdefault/trakindo/dev_drupal/sites/default/files/product_xml/unprocessed/en/406/470_en.xml
Deleted: /home/skyshi/devdefault/trakindo/dev_drupal/sites/default/files/product_xml/unprocessed/en/406/471_en.xml
Deleted: /home/skyshi/devdefault/trakindo/dev_drupal/sites/default/files/product_xml/unprocessed/en/406/472_en.xml
Deleted: /home/skyshi/devdefault/trakindo/dev_drupal/sites/default/files/product_xml/unprocessed/en/406/474_en.xml
Deleted: /home/skyshi/devdefault/trakindo/dev_drupal/sites/default/files/product_xml/unprocessed/en/406/476_en.xml
Deleted: /home/skyshi/devdefault/trakindo/dev_drupal/sites/default/files/product_xml/unprocessed/en/406/477_en.xml
Deleted: /home/skyshi/devdefault/trakindo/dev_drupal/sites/default/files/product_xml/unprocessed/en/406/478_en.xml
Deleted: /home/skyshi/devdefault/trakindo/dev_drupal/sites/default/files/product_xml/unprocessed/en/406/480_en.xml
Deleted: /home/skyshi/devdefault/trakindo/dev_drupal/sites/default/files/product_xml/unprocessed/en/406/481_en.xml
Deleted: /home/skyshi/devdefault/trakindo/dev_drupal/sites/default/files/product_xml/unprocessed/en/406/482_en.xml
Deleted: /home/skyshi/devdefault/trakindo/dev_drupal/sites/default/files/product_xml/unprocessed/en/406/483_en.xml
Deleted: /home/skyshi/devdefault/trakindo/dev_drupal/sites/default/files/product_xml/unprocessed/en/406/484_en.xml
Deleted: /home/skyshi/devdefault/trakindo/dev_drupal/sites/default/files/product_xml/unprocessed/en/406/680_en.xml