
Power Systems (402)
402
18255920
18255914
18255916
18255918
18260932
18327284
18396813
18342090
18492969
1000024820
18255940
18378687
18255931
18409446
18255925
18255927
18260926
18375952
18260928
18260930
18434723
18378906
18434711
18434709
18434707
18434701
18434717
18434715
1000001926
18260932/1000001187
18260932/1000001191
18260932/1000001190
18260932/1000001234
18260932/1000001235
18260932/18489720
18260932/18331146
18260932/18331379
18260932/18321546
18260932/18332039
18260932/1000001060
18260932/18330406
18260932/18331799
18260932/18331919
18260932/1000024629
18260932/1000024718
18260932/18331264
18260932/18503929
18260932/18491839
18260932/18492095
18327284/18487630
18327284/18485403
18327284/18485342
18327284/18475658
18327284/18487391
18327284/18487627
18327284/18487642
18327284/18487654
18327284/18487651
18327284/18487639
18327284/18487648
18327284/18484958
18396813/18596477
18342090/18596812
18342090/1000030380
18492969/18498220
18492969/18498371
18492969/18499752
18492969/18498571
18492969/1000029352
1000024820/1000024837
1000024820/1000025596
1000024820/1000024819
18255940/18374126
18255940/1000003137
18255940/18377729
18255940/18279748
18255940/1000022860
18255940/18279848
18255940/18374369
18255940/18375173
18255940/18375224
18255940/18375269
18255940/18377762
18378687/18391766
18378687/18391802
18378687/18391853
18378687/18391892
18378687/18391931
18378687/1000023943
18378687/1000023946
18378687/18444686
18378687/18392009
18378687/18392059
18378687/18392109
18378687/18396308
18378687/18392152
18378687/18391626
18378687/18396452
18378687/18396528
18378687/18396581
18378687/18377764
18378687/18396631
18378687/18396700
18378687/18397086
18378687/18397141
18378687/18377766
18378687/18397966
18378687/18397814
18378687/18398034
18378687/18398100
18378687/18397893
18378687/18398166
18378687/1000006966
18378687/18398231
18378687/18398296
18378687/18398361
18378687/18398426
18255931/18395426
18255931/18395494
18255931/18444432
18255931/1000003138
18255931/18395606
18255931/18395688
18255931/18395733
18255931/18395806
18255931/18395875
18255931/18395947
18409446/18429688
18409446/18429729
18409446/18405906
18409446/18406038
18409446/18395646
18409446/18429639
18409446/18595859
18409446/18398491
18409446/18398542
18409446/18398592
18409446/18398642
18409446/18398692
18409446/1000006969
18255925/18378750
18255925/18406768
18255925/18405888
18255925/18406867
18255925/18407011
18255925/18407086
18255927/18449959
18255927/18450293
18255927/18450404
18255927/18450410
18255927/18450647
18255927/18450767
18255927/18450893
18255927/18451014
18255927/18451119
18260926/1000015283
18260926/18367636
18260926/1000001073
18260926/18493417
18260926/18493267
18260926/18493993
18260926/18499457
18260926/18401118
18260926/18349729
18260926/18370846
18260926/18404461
18260926/18403988
18260926/18494376
18260926/18408926
18260926/18409526
18260926/18591264
18260926/18385954
18260926/18390306
18260926/18394026
18375952/1000023967
18375952/1000001667
18375952/18400510
18375952/18400772
18375952/18400706
18375952/1000015300
18375952/18494378
18375952/18494382
18375952/18494387
18375952/18408746
18260928/18474649
18260928/18414775
18260928/1000001095
18260928/18494395
18260928/18415746
18260928/1000015320
18260928/1000024700
18260928/18494397
18260928/18494399
18260928/18495302
18260928/18495304
18260928/18496738
18260928/18500250
18260928/18500276
18260928/18417046
18260928/18417368
18260928/18417692
18260928/18418386
18260930/18430246
18260930/1000015280
18260930/18501232
18260930/18501365
18260930/18501645
18260930/18501534
18260930/18430340
18260930/18432082
18260930/18432553
18260930/18483918
18434723/18440812
18434723/18441744
18434723/18442246
18434723/18442354
18434723/18442880
18434723/18442763
18434723/18442992
18434723/18443098
18434723/18443172
18434723/18443251
18434723/18443369
18434723/18443706
18434723/18443810
18434723/18443940
18434723/18444186
18434723/18444291
18434723/18457059
18434723/18457925
18434723/18458056
18434723/18458355
18434723/1000000844
18434723/1000000846
18434723/1000000847
18434723/1000000845
18434723/1000014260
18434723/1000014263
18378906/18457196
18378906/18457241
18378906/18457296
18378906/18457364
18378906/18457435
18378906/18457505
18434711/18446535
18434711/18445985
18434711/18446757
18434711/18445402
18434711/18436088
18434711/18445605
18434711/18457594
18434711/18447069
18434711/18447184
18434711/18500627
18434709/18448564
18434709/18494857
18434709/18448673
18434709/18495209
18434709/18494941
18434709/18448811
18434709/18495243
18434709/18448911
18434709/18495272
18434709/18448184
18434709/18447693
18434709/18447872
18434709/18448327
18434709/18448028
18434709/18448445
18434707/18550898
18434707/18550973
18434707/18551396
18434707/18552094
18434707/18552228
18434707/18552354
18434707/18457801
18434707/18552960
18434707/18553174
18434701/18452045
18434701/18452548
18434701/18452268
18434701/18458886
18434701/18458728
18434701/18452388
18434701/18459039
18434701/18459192
18434701/18450066
18434701/18449708
18434701/18449218
18434717/18502745
18434717/18504143
18434717/18504305
18434715/1000004391
1000001926/1000001928
1000001926/1000011606
1000001926/1000011607
1000001926/1000002940
402
18255920
1000001595
1000001595/1000021251

Site Support Equipment (486)
486
487
1000009064
488
490
500
491
492
493
16914516
683
495
497
498
499
18098829
17529415
494
502
503
17279801
1000006949
17279799
13889363
505
13889044
506
17534587
516
17526787
515
1000007067
518
17528473
523
752
676
17546476
580
17528132
17546403
17527605
524
17527612
17528066
534
17528081
16909182
544
547
17527845
546
17537042
17527937
557
17529613
686
684
729
564
571
572
573
577
579
18108826
18108806
18108766
18458715
18108835
18105526
18105517
18107548
18107355
18107286
18108846
18105506
17529419
562
581
582
17528058
17528047
583
17528168
17528177
1000006951
17529655
17528123
17527992
13889365
592
591
17528102
17528090
17529605
17528109
17528116
13889046
17529646
17527990
17534587/17534688
17534587/17534646
17534587/17534690
17534587/17692445
17534587/18349542
17534587/18349067
17534587/17534648
17534587/17539105
17534587/17539107
17534587/17534650
17534587/17534638
17534587/17534640
17534587/17534654
17534587/17534660
17534587/17534656
17534587/17534658
17534587/17534662
17534587/17534642
17534587/17534644
17534587/17534664
17534587/17534686
17534587/17550845
17534587/17550865
17534587/17550867
17534587/17550869
17534587/17550871
17534587/17550873
17534587/17550905
17534587/17550925
17534587/18100131
17534587/17534613
17534587/17534615
17534587/18100135
17534587/17534617
17534587/17534619
17534587/17534623
17534587/17534621
17534587/17534625
17534587/17534627
17534587/17534629
17534587/17534631
17534587/17699052
17534587/17699050
17534587/17635821
17534587/17635826
17534587/17635831
17534587/17635845
17534587/17635850
17534587/17635855
17534587/17635865
17534587/17635746
17534587/17635785
17534587/17635751
17534587/17635765
17534587/17635775
17534587/17635780
17534587/17635770
17534587/17635790
17534587/17635795
17534587/17635800
17534587/17635805
17534587/17635811
17534587/17635816
17534587/17699048
17534587/17699046
17534587/17692469
17534587/17692485
17534587/17692467
17534587/17692465
17534587/18349063
17534587/17535787
17534587/17535785
17534587/17535783
17534587/17535781
17534587/17535801
17534587/18349166
17534587/17535799
17534587/18349183
17534587/17535797
17534587/18349185
17534587/17535793
17534587/17535795
17534587/18349214
17534587/17535791
17534587/18349217
17534587/18349220
17534587/17535789
17534587/17550991
17534587/17550985
17534587/17550987
17534587/17550989
17534587/17546357
17534587/17546359
17534587/18349491
17534587/17546361
17534587/17546363
17534587/18349602
17534587/18100133
17534587/17534692
17534587/17534694
17534587/17551011
17534587/17551013
17534587/17535769
17534587/17535771
17534587/18349065
17534587/18349595
17534587/18349597
17534587/18349600
17534587/17535803
17534587/17535844
17534587/17537585
17534587/18119426
17534587/17537587
17534587/17535842
17534587/17535840
17534587/18349223
17534587/18349345
17534587/18349343
17534587/17535813
17534587/18349336
17534587/18349339
17534587/17535811
17534587/17537590
17534587/18349334
17534587/17535807
17534587/18349348
17534587/17535805
17534587/18349358
17534587/1000010986
17534587/1000010989
17534587/1000010992
17534587/1000017632
17534587/1000017626
17534587/1000017629
17534587/1000017620
17534587/1000017623
17534587/1000007080
17534587/1000010995
516/18349386
516/18349394
516/18349398
516/10611093
516/10611095
516/18349409
516/10611089
516/18349411
516/18349415
516/10611091
516/18349413
516/18349417
516/10611107
516/18349419
516/10611109
516/18349421
516/10611111
516/10611113
516/10611105
516/18349423
516/10611099
516/10611101
516/10611103
516/17570745
516/17570734
17526787/17534604
17526787/17534590
17526787/18349071
17526787/17534592
17526787/17534610
17526787/17534594
17526787/18349073
17526787/17534596
17526787/18349075
17526787/18349087
17526787/18349077
17526787/18349079
17526787/18349083
17526787/18349081
17526787/17534598
17526787/18349085
17526787/18349089
17526787/17534600
17526787/17534606
17526787/18349091
17526787/18349093
17526787/17534602
17526787/17534608
17526787/18349095
17526787/17635925
17526787/17635940
17526787/17635930
17526787/17635945
17526787/17635955
17526787/17635890
17526787/753181
17526787/753211
17526787/753182
17526787/753183
17526787/13880004
17526787/18349431
17526787/753184
17526787/753185
17526787/18349425
17526787/17537665
17526787/753187
17526787/753188
17526787/18349427
17526787/16908852
17526787/17537713
17526787/18349429
17526787/753225
17526787/753226
17526787/17635960
17526787/17635970
17526787/17692345
17526787/17692347
17526787/17550967
17526787/17635870
17526787/17635885
17526787/17546337
17526787/17546333
17526787/17546330
17526787/17546328
17526787/17546325
17526787/753177
17526787/753178
17526787/17546305
17526787/17545881
17526787/17546341
17526787/17546344
17526787/17546346
17526787/17546349
17526787/17546351
17526787/17546353
17526787/17546355
17526787/17551007
17526787/17551009
17526787/17551069
17526787/17551054
17526787/17551092
17526787/17551076
17526787/17551098
17526787/1000010998
17526787/1000011004
17526787/1000011007
17526787/1000011013
17526787/1000011022
17526787/1000011016
17526787/1000011025
17526787/1000011019
17526787/1000011028
17526787/1000003687
17526787/1000003684
17526787/1000003693
17526787/1000003690
17526787/1000003681
17526787/1000003699
17526787/1000003696
515/17692713
515/753304
515/17692715
515/16910680
515/16910678
515/18349605
515/753299
515/16910682
515/753306
515/18349632
515/753307
515/18349635
515/753308
515/18349638
515/753309
515/753321
515/753322
515/753323
515/753324
515/753325
515/753326
515/18349483
515/753327
515/18349485
515/753328
515/18349487
515/16908976
515/16908984
515/16908987
515/753329
515/18349433
515/753330
515/18349437
515/753331
515/18349439
515/18349641
515/18349646
515/17550945
515/17550965
515/18349496
515/18349498
515/17551015
515/17692705
515/17551021
515/17551046
515/17551050
1000007067/1000007083
518/17541698
518/17541706
518/17541700
518/17541673
518/17541710
518/17541726
518/17541745
518/17541747
518/17541708
518/17541702
518/17541675
518/17541671
518/17541704
518/17541677
518/17541681
518/17541679
518/17541683
518/17541686
518/17541688
518/17541690
518/17541692
518/17541694
518/17541696
518/17550425
518/17550445
518/17550447
518/17550487
518/17550611
518/17550449
518/17550489
518/17550479
518/17550613
518/17550491
518/17550505
518/17550588
518/17550507
518/17550609
518/17550481
518/17550483
518/17550509
518/17550485
518/17550607
518/17550511
518/17550513
518/17550540
518/17550534
518/17550526
518/17550528
518/17550530
518/17550554
518/17550548
518/17550532
518/17550605
518/17550452
518/17550454
518/17550465
518/17550467
518/17550469
518/17550471
518/17550473
518/17550475
518/17550477
518/17550558
518/17550560
518/17550564
518/17550586
518/753365
518/753362
518/17540720
518/17540722
518/17540724
518/17540726
518/17540728
518/18349839
518/18349841
518/18349843
518/18349845
518/17540757
518/17540759
518/17540730
518/17540772
518/17540770
518/17540768
518/17540837
518/17540849
518/17540844
518/17540766
518/17540775
518/17540847
518/17540833
518/753388
518/753364
518/753367
518/753366
518/753386
518/753389
518/17541258
518/753354
518/17563227
518/17563246
518/17563265
518/17540762
518/17642675
518/17642686
518/17844885
518/17845107
518/17642645
518/17642647
518/17642649
518/17642627
518/17642632
518/17642634
518/17540764
518/17642688
518/17845072
518/17845113
518/17845074
518/17845111
518/17642659
518/17642655
518/17642657
518/17642665
518/17642667
518/17642669
518/17845109
518/17642671
518/17642587
518/17642625
518/17845085
17528473/17541350
17528473/17541348
17528473/17541605
17528473/17541582
17528473/17541345
17528473/18350793
17528473/18350795
17528473/17541325
17528473/18350797
17528473/17541303
17528473/17541292
17528473/18350791
17528473/17541579
17528473/17541577
17528473/18350799
17528473/18350801
17528473/17541575
17528473/18350803
17528473/17541573
17528473/17541571
17528473/18350815
17528473/18350817
17528473/18350811
17528473/17541569
17528473/18350819
17528473/18350821
17528473/18350813
17528473/17541567
17528473/17541565
17528473/17541528
17528473/18350823
17528473/17541484
17528473/17541607
17528473/17541482
17528473/17541480
17528473/18350827
17528473/17541471
17528473/18350829
17528473/17541469
17528473/17541463
17528473/17541416
17528473/18350831
17528473/17541390
17528473/18350833
17528473/17541388
17528473/18350835
17528473/17541386
17528473/17541368
17528473/17642465
17528473/18350841
17528473/18350843
17528473/17642451
17528473/17642449
17528473/17535993
17528473/17536045
17528473/17536047
17528473/17642473
17528473/17642471
17528473/17642469
17528473/17536049
17528473/17536064
17528473/17642491
17528473/18350845
17528473/17642493
17528473/17642495
17528473/17536001
17528473/17536003
17528473/17642499
17528473/17536005
17528473/17536007
17528473/17642501
17528473/17536009
17528473/17642505
17528473/17536033
17528473/18350837
17528473/17561215
17528473/17561217
17528473/17560705
17528473/17560708
17528473/17561127
17528473/17561125
17528473/17561131
17528473/17561129
17528473/17561219
17528473/17561135
17528473/17561133
17528473/17561185
17528473/17561167
17528473/17561207
17528473/17561187
17528473/17561209
17528473/17561211
17528473/17561221
17528473/17561213
17528473/17638169
17528473/17638566
17528473/17638173
17528473/17541817
17528473/17638570
17528473/17638572
17528473/17638585
17528473/17638592
17528473/17541783
17528473/17638125
17528473/17541781
17528473/17638647
17528473/17638649
17528473/17541815
17528473/17541811
17528473/17541813
17528473/17638576
17528473/17638588
17528473/17638373
17528473/17638375
17528473/17541807
17528473/17541771
17528473/17541773
17528473/17638171
17528473/17541777
17528473/18350851
17528473/17541665
17528473/17541668
17528473/17541779
17528473/17638103
17528473/18350849
17528473/17638129
17528473/17638131
17528473/17638139
17528473/17541765
17528473/17541805
17528473/17638165
17528473/17541769
17528473/17541767
17528473/17638167
17528473/18350853
17528473/17638568
17528473/17638590
17528473/17638645
17528473/17638147
17528473/17541809
17528473/17638574
17528473/17638371
17528473/17638681
17528473/17541819
17528473/17543767
17528473/17543765
17528473/17541821
17528473/17543771
17528473/17543769
523/753720
523/753721
523/17536185
523/17565766
523/17536143
523/16911099
523/17565768
523/753718
523/10028365
752/16911096
676/753727
676/753726
676/753728
676/17565754
676/17565309
676/17634001
676/17634012
676/1000011099
17546476/17546484
17546476/17546569
17546476/17546571
17546476/17546573
17546476/17546575
17546476/17546577
17546476/17546579
17546476/17546581
17546476/17546913
17546476/17546915
17546476/17546953
17546476/17546965
17546476/17546977
17546476/17546921
17546476/17546949
17546476/17546961
17546476/17546969
17546476/17546951
17546476/17546923
17546476/17546957
17546476/17546967
17546476/17546971
17546476/17546973
17546476/17546917
17546476/17546963
17546476/17546907
17546476/17546909
17546476/17546979
17546476/17546959
17546476/17546945
17546476/17546911
17546476/17546947
17546476/17546955
17546476/17546565
17546476/17546585
17546476/17546583
17546476/17546567
17546476/1000011355
17546476/1000011340
17546476/1000011343
17546476/1000011346
17546476/1000011358
17546476/1000011361
17546476/1000011349
17546476/1000011352
580/10609726
580/10609728
580/10609730
580/754669
580/754670
580/754671
580/754672
580/16901200
17528132/17550667
17528132/17550665
17528132/17550307
17546403/17546448
17546403/17568002
17546403/17546411
17546403/17546413
17546403/17546424
17546403/17546422
17546403/17546415
17546403/17563005
17546403/17563007
17546403/17546903
17546403/17546905
17546403/17546919
17546403/17546864
17546403/17546897
17546403/17546899
17546403/17546901
17546403/17561268
17546403/17561385
17546403/17563151
17546403/17563155
17546403/17563160
17546403/1000011364
17546403/1000011367
17546403/1000015260
17546403/1000011373
17527605/17550765
17527605/17550750
17527605/17550752
17527605/17550754
17527605/17550673
17527605/17550707
17527605/17550709
17527605/17550711
17527605/17550715
17527605/17550713
17527605/17550719
17527605/17550721
17527605/17550725
17527605/17550723
17527605/17550729
17527605/17550727
17527605/17550746
17527605/17550748
17527605/17537915
17527605/13831971
17527605/17537920
17527605/13831974
17527605/13831979
17527605/18352510
17527605/18352506
17527605/753789
17527605/18352508
17527605/18352512
17527605/18352514
17527605/17642375
17527605/18352516
17527605/753784
17527605/18352518
17527605/753786
17527605/18352520
17527605/753787
17527605/18352522
17527605/18352525
17527605/17534999
17527605/17535001
17527605/18352333
17527605/18352340
17527605/17535003
17527605/17529729
17527605/17535005
17527605/17535007
17527605/17535011
17527605/17535009
17527605/17535013
17527605/18352351
17527605/18352346
17527605/17535015
17527605/17529743
17527605/17535019
17527605/17535021
17527605/17535017
17527605/17535023
17527605/17552205
17527605/17553470
17527605/17560290
17527605/17560288
17527605/17552185
17527605/17552189
17527605/17552191
17527605/17552187
17527605/17550825
17527605/17550785
17527605/17550805
17527605/17560294
17527605/17560296
17527605/17560298
17527605/17560300
17527605/17560302
17527605/17560385
17527605/17560387
17527605/17560405
17527605/17560389
17527605/17560292
17527605/17537894
17527605/18352503
17527605/16927343
17527605/18352480
17527605/18352477
17527605/17537898
17527605/17537900
17527605/18352484
17527605/18352489
17527605/17537902
17527605/17537904
17527605/18352492
17527605/18352496
17527605/17537906
17527605/13831923
17527605/753733
17527605/753749
17527605/13831930
17527605/13831926
17527605/753734
17527605/753750
17527605/13831934
17527605/1000016860
17527605/1000016900
17527605/1000016880
17527605/1000021478
17527605/1000003980
17527605/1000003993
17527605/1000003994
17527605/1000004002
17527605/1000016820
17527605/1000016823
17527605/1000016840
17527605/1000016826
524/17550671
524/17550669
524/16927981
524/16927985
524/18352545
524/16927988
524/17642395
524/753757
524/13831946
524/753754
524/17642397
524/16927990
524/16927992
524/17642399
524/18352540
524/753765
524/13831951
524/16928036
524/753766
524/13831956
524/16928039
524/753756
524/753755
524/13000355
524/13000353
524/13000357
524/753760
524/753763
524/753758
524/17534995
524/753764
524/753761
524/17534997
524/17534985
524/13000351
524/17534987
524/17534989
524/17534991
524/17534993
524/17552021
524/17552023
524/17552025
524/17552027
524/17552029
524/1000014966
524/1000014980
524/1000014983
524/1000015000
524/1000015003
524/1000015020
17527612/17535039
17527612/17529739
17527612/17535041
17527612/17535045
17527612/17529737
17527612/17535047
17527612/17537951
17527612/17537965
17527612/17538082
17527612/1000015052
17527612/1000015056
17528066/17550767
17528066/17552019
17528066/18352354
17528066/17535025
17528066/17535036
17528066/17535030
17528066/17535032
17528066/17535034
17528066/17529733
17528066/16928047
17528066/17538114
17528066/17538120
17528066/18094565
17528066/18094567
17528066/17550769
17528066/17550771
17528066/18352356
17528066/18352358
17528066/18352360
17528066/18352362
17528066/17535028
17528066/18352364
17528066/1000015043
17528066/1000015040
17528066/1000004253
17528066/1000003720
17528066/1000003723
534/753852
534/753853
534/753854
534/753855
534/753856
534/753857
534/753858
534/17530545
17528081/17550327
17528081/17550345
17528081/17549408
17528081/17549406
17528081/17550325
16909182/17562088
16909182/17562092
16909182/17562096
16909182/17562090
16909182/17562102
16909182/17562374
16909182/17562368
16909182/17562370
16909182/17562372
16909182/1000006269
16909182/1000006271
16909182/1000006270
16909182/1000004247
544/17551985
544/17551357
544/17535596
544/17535592
544/17535594
544/17535588
544/17535590
544/13848959
544/13848986
544/13848978
544/13848992
544/13849005
544/17552015
544/17552017
544/17551987
544/17552005
544/17552009
544/17552013
544/17552007
544/17552011
544/17551262
544/17535584
544/17535586
544/17535576
544/17535578
544/17535580
544/17535571
544/17535582
544/17535574
544/1000003800
547/754177
547/754178
547/13832010
547/13832012
547/13832014
547/16929077
547/13832017
547/13832020
547/17535711
547/17535713
547/754179
547/754180
547/754181
547/754182
547/754183
547/17535707
547/17535709
547/754184
547/754185
547/754186
547/17535715
547/754187
547/754176
547/754188
547/754189
547/17535719
547/754190
547/17535717
17527845/17535680
17527845/17535682
17527845/17535684
17527845/17535678
17527845/17535662
17527845/17535664
17527845/17535666
17527845/17535668
17527845/17535670
17527845/17538353
17527845/753966
17527845/17538357
17527845/17538355
17527845/17538367
17527845/17538365
17527845/17538371
17527845/17538373
17527845/17538369
17527845/17538375
17527845/17538377
17527845/17538379
17527845/17540749
17527845/17540751
17527845/17540753
17527845/17540755
17527845/17535672
17527845/17535674
17527845/17535676
17527845/1000003937
17527845/1000003935
17527845/1000003949
17527845/1000003947
17527845/1000003968
17527845/1000003969
17527845/1000003959
17527845/1000003961
17527845/1000003936
17527845/1000003948
17527845/1000003960
546/754238
546/754208
546/754209
546/754210
546/17535640
546/17535638
546/13880009
546/754211
546/17535634
546/754227
546/754228
546/754206
546/754230
546/16929079
546/16929081
546/16929093
546/16929095
546/16929089
546/754231
546/754233
546/754239
546/754205
546/16929083
546/16929085
546/754234
546/754235
546/754212
546/17562376
546/754213
546/754214
546/17535642
546/754215
546/754216
546/754217
546/754218
546/754219
546/754220
546/754236
546/754237
546/754221
546/754222
546/754223
546/17535636
546/754224
546/754225
546/754226
546/1000003785
546/1000003794
546/1000003797
546/1000014820
546/1000019060
546/1000014823
546/1000019063
546/1000003788
546/1000003791
17537042/17552031
17537042/17535692
17537042/17552087
17537042/17552085
17537042/17547993
17537042/17547995
17537042/17547997
17537042/17547999
17537042/17547984
17537042/17547986
17537042/17547990
17537042/17547988
17537042/17547980
17537042/17547982
17537042/17537032
17537042/17537034
17537042/17537036
17537042/17537038
17537042/17537040
17537042/17536897
17537042/17536899
17537042/17537030
17537042/17536901
17537042/17536903
17537042/17537025
17537042/17537027
17527937/17570369
17527937/17570371
17527937/17570373
17527937/17570365
17527937/17570367
17527937/17530547
17527937/17537450
17527937/17537454
17527937/17537457
17527937/17537425
17527937/17537440
17527937/17537464
17527937/17537462
17527937/17537460
17527937/17537443
17527937/17537445
17527937/17548051
557/17570385
557/17570376
557/16928056
557/16928058
557/17570378
557/17570380
557/17570382
557/17548006
557/17548008
557/17548045
557/17548047
557/17548049
557/17535650
557/17539573
557/17539551
557/17539553
557/17539555
557/17539557
557/17539545
557/17539547
557/17539549
557/17539571
557/17539569
557/17539535
557/17539537
557/17539539
557/17539529
557/17539541
557/17539531
557/17539543
557/17539533
557/17539559
557/17539565
557/17539567
557/17539473
557/17539475
557/17539465
557/17539477
557/17539467
557/17539525
557/17539469
557/17539527
557/17539471
557/754359
557/17540185
557/17539605
557/754349
557/754333
557/754335
557/754334
557/754336
557/754337
557/754338
557/754341
557/17535694
557/17535696
557/754331
557/754332
557/754340
557/754346
557/17535652
557/17535654
557/17535656
557/754343
17529613/17545826
17529613/17545828
17529613/17545830
17529613/17563072
17529613/17563074
17529613/17563068
17529613/17563070
17529613/17551191
17529613/17551107
17529613/17551227
17529613/17551231
17529613/17551233
17529613/17551239
17529613/17551244
17529613/17551248
17529613/17551229
17529613/17551235
17529613/17551237
17529613/17551241
17529613/17551246
17529613/17551250
17529613/17551252
686/17568000
686/754157
686/754158
686/754159
686/754160
686/754161
686/754148
686/17537745
686/17537747
686/754154
686/754155
686/754156
686/754162
686/754163
686/754166
686/754172
686/754149
686/754153
686/754171
686/754165
686/17535625
686/17535630
686/17535632
686/17535627
686/13880012
684/18353988
684/18353942
684/18353975
684/18353986
684/18353927
684/18353930
684/18353934
684/18353936
684/18353938
684/18353940
684/17567455
684/18353919
684/18353921
684/17567407
684/17567409
684/17567445
684/17567411
684/17567447
684/17567449
684/17567451
684/754362
684/17538785
684/17567405
684/17567335
684/17567453
684/1000017809
684/1000017812
684/1000017815
684/1000017820
684/1000017780
684/1000017783
684/1000017800
729/17535727
729/17535725
729/18354043
729/18354045
729/17570171
729/18353579
729/754477
729/16910088
729/754479
729/18353600
729/18353574
729/18353314
729/18353571
729/18354032
729/18354034
729/754482
729/16902019
729/754481
729/13741162
729/18354038
729/1000006346
729/1000006349
564/17544525
564/18355794
564/17544337
564/17544330
564/18355747
564/18353626
564/18353800
564/18353841
564/18353803
564/18353843
564/18353847
564/18353805
564/18353807
564/18353813
564/18353630
564/18353632
564/18353821
564/17544484
564/17544490
564/17544505
564/17544507
564/17544233
564/17544235
564/18354435
564/18354437
564/18354439
564/18354057
564/18354073
564/18354441
564/18354443
564/18354447
564/18354082
564/18354449
564/18354460
564/18354061
564/18354064
564/18354066
564/18354084
564/18354451
564/18354106
564/18354453
564/18354455
564/18354068
564/18354110
564/17539421
564/17544389
564/17544385
564/17544345
564/18353830
564/18353828
564/17544205
564/18355743
564/17544209
564/17544211
564/18355745
564/17544215
564/17544164
564/17544217
564/754486
564/754487
564/754488
564/754489
564/17544465
564/17544482
564/18355792
564/754494
564/754496
564/18355749
564/18355751
564/18355753
564/18355755
564/754495
564/18355757
564/17544231
564/18355759
564/18355761
564/17544223
564/18355763
564/18355765
564/17544227
564/18355787
564/17544219
564/18355790
564/17544239
564/17544241
564/17544393
564/17544404
564/18355741
564/17535733
564/1000006356
564/1000006352
564/1000006355
564/1000003672
571/754553
571/17561791
571/16929038
572/13746262
572/754559
572/13746265
572/16929073
572/13746255
572/17561913
573/754569
573/754570
573/754571
573/754572
573/754574
573/754573
573/754575
577/17545565
577/17545567
577/17545545
579/10609714
579/10609697
579/10609722
579/10609708
579/754613
579/754614
579/17535777
579/17535779
579/17535091
579/18352013
579/18351211
579/18352011
579/18351728
579/18351730
579/18351732
579/18351772
579/18352566
579/17535075
579/18352572
579/18352576
579/18352578
579/18352581
579/18352589
579/17535093
579/17535085
579/18350855
579/18350886
579/18350890
579/18350888
579/18350892
579/18350894
579/18350896
579/18350898
579/18350900
579/18350902
579/18350904
579/18350906
579/18350908
579/754617
579/17539409
579/17539411
579/17539405
579/17539407
579/17539205
579/754612
579/17539415
579/17539413
579/17535773
579/754605
579/754604
579/1000016920
579/1000016903
579/1000016960
579/1000016963
579/1000016940
579/1000016943
18108826/18108906
18108806/18108886
18108766/18108934
18458715/1000010198
18108835/18109028
18105526/18105546
18105517/18105548
18107548/18108366
18107355/18107710
18107286/18107708
18108846/18109066
18105506/18105566
17529419/17567525
17529419/17567527
17529419/17567529
17529419/17567514
17529419/17567512
562/17535051
562/18354470
562/18354474
562/18354476
562/18354478
562/18354483
562/18354489
562/18354494
562/18354497
562/18354499
562/18354503
562/18354507
562/18354511
562/18354515
562/18354520
562/18354522
562/18354524
562/18353873
562/18353882
562/18353886
562/18353876
562/18353879
562/18352015
581/17564149
581/17564361
581/17565021
581/17564359
581/17565068
581/17565071
581/17565084
581/17565082
581/17565086
581/17565099
581/17547271
581/17547269
581/10609180
581/10609194
581/17547273
581/10609215
581/17547277
581/10609200
581/10609203
581/17547279
581/10609207
581/17547275
581/10609211
581/10609231
581/10609219
581/17547283
581/10609229
581/17547665
581/10609243
581/17547667
581/17547281
581/10609245
581/17547669
581/17547679
581/17547681
581/17547683
581/17547705
581/17547707
581/17547671
581/17547673
581/17547675
581/17547677
581/17547711
581/17547709
581/10609167
581/754743
581/754745
581/754676
581/754718
581/754747
581/754749
581/754724
581/754750
581/754752
581/754725
581/754753
581/754727
581/10609253
581/10609255
581/10609257
581/17547267
581/17547118
581/17547120
581/10609170
581/10609172
581/10609174
581/10609176
581/17547123
581/10609178
581/17547265
581/17565771
581/17547713
581/10609247
581/17547715
581/10609251
581/754728
581/754692
581/754731
581/754734
581/754735
581/1000003327
581/1000003333
581/1000003345
581/1000003358
581/1000003387
581/1000003391
581/1000003355
581/1000003390
581/1000003406
581/1000003407
581/1000003389
581/1000003344
581/1000003334
581/1000003346
581/1000003354
581/1000003353
581/1000003374
581/1000003356
581/1000003372
581/1000003375
581/1000003371
581/1000003373
581/1000003388
581/1000003386
581/1000003404
581/1000003408
582/10609160
582/10609158
582/10609162
582/10609164
582/10609106
582/10609110
582/10609112
582/10609114
582/754785
582/754773
582/754787
582/754789
582/754788
582/754791
582/754762
582/754793
582/754769
582/754797
582/754771
582/10609126
582/10609131
582/10609133
582/10609138
582/10609142
582/10609146
582/10609156
582/17547948
582/10609150
582/10609152
582/10609154
582/10609122
582/10609120
582/10609124
582/1000003819
582/1000003818
582/1000003827
582/1000003824
582/1000003826
582/1000003825
582/1000003836
582/1000003588
582/1000003582
582/1000003590
582/1000003594
582/1000003513
582/1000003523
582/1000003509
582/1000003526
582/1000003524
582/1000003510
582/1000003527
582/1000003514
582/1000003517
582/1000003505
582/1000003512
582/1000003579
582/1000003580
582/1000003577
582/1000003584
582/1000003576
582/1000003583
582/1000003581
582/1000003591
582/1000003596
582/1000003587
582/1000003592
582/1000003593
582/1000003601
582/1000003598
582/1000003585
582/1000003595
582/1000003578
582/1000003589
582/1000003597
582/1000003586
582/1000003600
582/1000003599
582/1000003522
582/1000003508
582/1000003520
582/1000003507
582/1000003423
582/1000003426
582/1000003437
582/1000003450
582/1000003451
582/1000003454
582/1000003453
582/1000003430
582/1000003452
582/1000003455
582/1000003468
582/1000003469
582/1000003476
582/1000003429
582/1000003471
582/1000003475
582/1000003470
582/1000003473
582/1000003474
582/1000003478
582/1000003477
582/1000003472
582/1000003479
582/1000003504
582/1000003506
582/1000003521
582/1000003515
582/1000003519
582/1000003511
582/1000003516
582/1000003518
582/1000003525
582/1000003438
17528058/18354829
17528058/18354831
17528058/18354958
17528058/18354985
17528058/18354952
17528058/18354998
17528058/18354954
17528058/18355282
17528058/18355003
17528058/18355288
17528058/18354956
17528058/18355291
17528058/18355285
17528058/17545153
17528058/17703514
17528058/17703508
17528058/17703510
17528058/17703512
17528058/18355479
17528058/18355482
17528058/17535130
17528058/17535126
17528058/17535128
17528058/17544657
17528058/17544653
17528058/17544655
17528058/17544651
17528058/18355702
17528058/18355704
17528058/18355706
17528058/18355708
17528058/18355710
17528058/18355712
17528058/18355714
17528058/18355716
17528058/18355718
17528058/18355720
17528058/18355722
17528058/18355724
17528058/18355726
17528058/18355728
17528058/18355730
17528058/18355732
17528058/18355734
17528058/18355736
17528058/18355738
17528058/17570419
17528058/17570417
17528058/17570415
17528058/17535124
17528058/17545151
17528058/1000004691
17528058/1000004692
17528058/1000004688
17528058/1000004690
17528058/1000004689
17528058/1000004686
17528058/1000004687
17528058/1000004707
17528058/1000004708
17528058/1000013420
17528058/1000004720
17528058/1000004719
17528058/1000004713
17528058/1000004718
17528058/1000004716
17528058/1000004714
17528058/1000004717
17528058/1000004715
17528047/17543869
17528047/18354002
17528047/17543871
17528047/17543873
17528047/754833
17528047/754834
17528047/17543875
17528047/17544659
17528047/17544668
17528047/17535118
17528047/17530493
17528047/17544670
17528047/17544672
17528047/17544674
17528047/18352605
17528047/17570387
17528047/17570389
17528047/17570391
17528047/17570393
17528047/17570395
17528047/17570397
17528047/17570399
17528047/17570401
17528047/17570403
17528047/17570405
17528047/17570407
17528047/17570409
17528047/17570411
17528047/17570413
17528047/18352609
17528047/18352612
17528047/18352616
17528047/17535107
17528047/18352017
17528047/18352019
17528047/18352023
17528047/17535109
17528047/18352025
17528047/18352028
17528047/17530487
17528047/17535113
17528047/17535111
17528047/17535116
17528047/18352030
17528047/1000004683
583/17552089
583/17544734
583/17544736
583/17544676
583/17544678
583/17544680
583/17544730
583/17544682
583/17544684
583/17544726
583/17544728
583/754857
583/754859
583/754861
583/754851
583/754852
583/754854
583/18352620
583/754855
583/754858
583/754856
583/754860
583/754862
583/754879
583/754884
583/754883
583/754878
583/754880
583/754882
583/754881
583/754853
583/18353285
583/17570423
583/17570421
583/18352622
583/18353291
583/18352624
583/18353289
583/18353294
583/17535105
583/754872
583/17530491
583/17535103
583/17535097
583/17535099
583/17535101
583/754873
583/1000004659
583/1000004664
583/1000004656
583/1000004661
583/1000004658
583/1000004657
583/1000004660
583/1000004662
583/1000004663
583/1000004617
583/1000004653
583/1000004593
583/1000004646
583/1000004599
583/1000004644
583/1000004645
583/1000004595
583/1000004596
583/1000004594
583/1000004597
583/1000004626
583/1000004625
583/1000004623
583/1000004624
583/1000004627
583/1000004621
583/1000004622
583/1000004620
17528168/17537579
17528168/17537581
17528168/17537583
17528168/17537575
17528168/17537577
17528168/17537609
17528168/17537611
17528168/17537613
17528168/17537605
17528168/17537607
17528168/17537619
17528168/17537621
17528168/17537623
17528168/17537615
17528168/17537617
17528168/17529413
17528168/17529409
17528168/17530585
17528168/17530587
17528168/17530589
17528168/17530593
17528168/17530735
17528168/17530605
17528168/17547022
17528168/17547080
17528168/17546985
17528168/17547011
17528168/17547078
17528168/17547035
17528168/17547062
17528177/17537551
17528177/17535846
17528177/17537545
17528177/17537547
17528177/17537549
17528177/17537557
17528177/17537559
17528177/17537561
17528177/17537563
17528177/17537553
17528177/17537555
17528177/17529407
17528177/17537567
17528177/17537569
17528177/17537571
17528177/17537573
17528177/17537565
1000006951/1000006302
17529655/18099992
17528123/18364587
17527992/17539424
17527992/17547105
17527992/17547108
13889365/17547116
13889365/17547110
13889365/17547112
13889365/17547114
592/17561387
592/13746340
592/17561391
592/17570806
592/16902026
592/17561393
592/17561395
592/17561389
591/17567998
591/16902028
591/17546981
591/17546983
591/13746342
591/13746345
591/1000009340
17528102/17570896
17528102/17570898
17528102/17570900
17528102/17536112
17528102/17536069
17528102/17536108
17528102/17536139
17528102/17536136
17528102/17536127
17528102/1000003839
17528102/1000003842
17528102/1000003845
17528102/1000003848
17528090/17544645
17528090/17570838
17528090/17570840
17529605/17545113
17529605/17545115
17529605/17570884
17529605/17570866
17529605/17570873
17529605/1000005708
17529605/1000005723
17529605/1000005722
17529605/1000005721
17529605/1000005694
17529605/1000005695
17529605/1000005693
17529605/1000005704
17529605/1000005705
17529605/1000005703
17529605/1000005707
17528109/17534841
17528109/17534843
17528109/17534826
17528109/17534829
17528109/17534831
17528109/17534833
17528109/17534835
17528109/17534837
17528109/17534839
17528109/17567994
17528109/17567996
17528109/17568468
17528109/17567990
17528109/17567992
17528109/17568480
17528109/17568482
17528109/17570092
17528109/17570103
17528109/17568470
17528109/17568472
17528109/17568484
17528109/17568526
17528109/17570127
17528109/17570133
17528109/17568474
17528109/17568476
17528109/17568478
17528109/17570137
17528109/17570139
17528109/17570141
17528109/17570143
17528109/17568663
17528109/17567985
17528109/17567988
17528109/17534941
17528109/17534943
17528109/17534965
17528109/17537765
17528109/17568538
17528109/17568625
17528109/17568627
17528109/17568629
17528109/17568528
17528109/17568530
17528109/17568532
17528109/17568534
17528109/17568536
17528109/17568951
17528109/17568953
17528109/17568955
17528109/17568631
17528109/17568633
17528109/17568635
17528109/17568957
17528109/17568960
17528109/17568962
17528109/17568637
17528109/17568639
17528109/17568641
17528109/17569376
17528109/17569378
17528109/17568645
17528109/17569803
17528109/17570065
17528109/17568647
17528109/17570145
17528109/17570147
17528109/17570067
17528109/17570149
17528109/17570153
17528109/17570069
17528109/17570156
17528109/17568945
17528109/17570158
17528109/17570160
17528109/17570077
17528109/17570162
17528109/17570164
17528109/17570166
17528109/17570086
17528109/17568947
17528109/17568949
17528109/17570169
17528109/17568649
17528109/17568651
17528109/17568653
17528109/17568655
17528109/17568657
17528109/17568659
17528109/17534925
17528109/17534929
17528109/17534931
17528109/17534933
17528109/17534935
17528109/17534937
17528109/17534939
17528109/1000007120
17528109/1000007124
17528109/1000007125
17528109/1000007127
17528109/1000007123
17528109/1000007121
17528109/1000007149
17528109/1000007122
17528109/1000007126
17528109/1000007151
17528109/1000007147
17528109/1000007144
17528109/1000007148
17528109/1000007146
17528109/17534927
17528116/17529626
17528116/17529505
17528116/17570927
17528116/17570925
13889046/17570832
13889046/17570836
13889046/17570834
13889046/1000004167
13889046/1000004168
13889046/1000004173
13889046/1000004164
13889046/1000020820
13889046/1000006000
13889046/1000003854
17529646/17536467
17529646/17536802
17529646/17530503
17529646/17530501
17529646/17571184
17529646/17536464
17529646/1000010946
17527990/17536671
17527990/17536685
17527990/17536687
17527990/17535071
17527990/17535067
17527990/17535069
17527990/17535065
17527990/17571148
17527990/17571150
17527990/17571179
486
499
579
579/17535775

Attachments (405)
405
408
744
1000009278
1000007660
409
411
412
413
414
415
416
1000001481
417
625
457
419
420
421
422
17859567
1000025071
430
18016825
17126039
440
753
1000009264
446
18438350
451
1000002920
146
1000027740
745
1000009280
1000007661
17127279
1200
12
13
19
79
17126492
185
186
18100453
188
661
118
1000009242
649
189
18101798
190
1000030348
156
1000027714
157
159
160
167
168
17797133
14053414
14090213
18087548
1000012585
1000021427
1000023032
25
27
614
29
18376176
17516974
1000001490
1000001483
1000001496
1000019080
1000019200
1000019220
1000019661
1000008720
162
261
165
163
1000021786
166
164
627
629
150
80
18441253
18596730
1000007520
18496673
17859573
632
18375748
49
17519437
1000025077
1000025074
1000026423
13869258
18496675
17126041
14088906
754
1000009265
1000008541
1000008484
1000030440
149
1000002922
146/17721951
146/17722043
146/17722004
146/17722297
146/17722265
146/17722597
146/17722550
146/17722664
1000027740/1000027743
1000027740/1000027764
1000027740/1000027768
1000027740/1000027786
1000027740/1000027767
1000027740/1000027773
1000027740/1000027785
1000027740/1000027774
1000027740/1000027775
1000027740/1000027776
1000027740/1000027809
1000027740/1000027810
1000027740/1000027813
1000027740/1000027814
1000027740/1000027815
1000027740/1000027816
1000027740/1000027789
1000027740/1000027790
1000027740/1000027791
1000027740/1000027792
1000027740/1000027787
1000027740/1000027788
1000027740/1000027835
1000027740/1000027836
1000027740/1000027833
1000027740/1000027834
1000027740/1000027811
1000027740/1000027812
745/17745443
1000009280/1000009279
1000009280/1000021781
1000007661/1000007663
1000007661/1000007662
1000007661/1000007664
1000007661/1000007665
17127279/17766626
17127279/17766838
1200/18032271
1200/18171786
1200/18032281
1200/18045361
1200/18045383
1200/18045409
1200/18045427
1200/18045437
1200/18032265
12/18075135
12/18075125
13/18075145
13/18171746
13/18075163
13/18075205
13/18075235
19/1000027746
19/1000000718
79/17791367
17126492/17791017
185/1000027171
185/18100446
185/1000027242
185/1000027264
185/1000027220
185/1000027169
185/1000027266
185/1000027172
185/18100467
185/1000027241
185/1000027265
185/1000027240
185/1000027263
185/1000027261
185/1000027182
185/1000027286
185/1000027184
185/18100481
185/1000027260
185/18100495
185/1000027183
185/1000027267
185/1000027287
185/1000027170
185/18100505
185/1000027243
185/1000027163
185/1000027181
185/1000027223
185/1000027285
185/1000027224
185/1000027284
185/18100515
185/1000027185
186/1000027298
186/1000027344
186/1000027343
186/18100525
186/1000027297
186/1000027307
186/18377826
186/1000027314
186/1000027320
186/1000027363
186/1000027359
186/1000027321
186/1000027327
186/1000027338
186/1000027361
186/1000027296
186/1000027340
186/1000027341
186/1000027306
186/18100569
186/1000027315
186/1000027305
186/18100539
186/1000027326
186/1000027362
186/1000027360
186/1000027328
186/1000027342
186/1000027365
186/1000027364
186/18383101
186/18100451
186/1000027339
18100453/18100646
188/18101585
188/18101365
188/18101599
188/18101479
188/18101613
188/18101493
188/18101549
188/18101627
188/18101507
188/18101567
188/18101650
188/18101521
188/18101573
188/18101664
188/18101535
188/18101579
661/18100747
661/18100761
661/18100875
661/18100858
118/18101422
118/18101436
118/18101366
118/18101394
118/18101408
118/18101359
1000009242/1000009241
1000009242/1000009240
649/18100788
649/18100802
649/18100816
649/18100830
649/18100844
189/18100970
189/18100988
189/18101026
189/18100928
189/18101012
189/18101046
189/18101040
189/18100953
18101798/18101806
18101798/18101820
18101798/18101834
18101798/18101848
190/18100699
190/18100713
190/18100727
190/18100746
190/18100774
1000030348/1000028079
1000030348/1000028073
1000030348/1000028072
1000030348/1000028017
1000030348/1000028018
1000030348/1000028019
156/18078814
156/18348991
156/1000027660
156/18078832
156/1000027699
156/1000027690
156/1000027697
156/18585018
156/18078894
156/18585654
156/18078876
156/18078922
156/1000027691
156/18078838
156/1000027708
156/1000027698
156/1000027696
156/18585437
156/18078912
156/18585388
156/18078940
1000027714/1000028829
1000027714/1000028040
1000027714/1000028042
1000027714/1000028043
1000027714/1000028833
1000027714/1000028020
1000027714/1000028016
1000027714/1000028047
1000027714/1000028832
1000027714/1000028049
1000027714/1000028021
1000027714/1000028041
1000027714/1000028045
1000027714/1000028838
1000027714/1000028839
1000027714/1000028044
1000027714/1000028076
1000027714/1000028074
1000027714/1000028008
1000027714/1000028001
1000027714/1000028046
1000027714/1000028048
1000027714/1000028070
1000027714/1000028078
1000027714/1000028009
1000027714/1000028007
1000027714/1000027711
1000027714/1000028077
1000027714/1000030801
1000027714/1000028002
1000027714/1000028071
1000027714/1000028075
157/18078950
157/1000027662
157/18078964
157/18078986
157/1000027670
159/18079005
159/18079089
159/18079071
159/18079103
159/1000027661
159/1000027671
159/1000027669
159/18079057
159/1000027869
159/1000027678
160/18079153
167/18080733
167/18080975
167/1000026594
167/1000026576
167/18081085
167/18080789
167/18080825
167/1000026580
167/18081195
167/18080861
167/1000026592
167/18080915
167/18080901
167/1000026579
167/18081423
167/18080939
167/1000026593
167/18081312
167/18376093
168/18086121
168/18086205
168/18086155
168/18086193
168/1000026605
168/18086630
168/18086419
168/18086562
168/18086744
168/18086668
168/18086770
168/1000026610
168/18086796
168/18086706
17797133/1000008683
17797133/1000008680
17797133/1000008684
17797133/1000008700
17797133/1000008701
17797133/1000008703
17797133/1000008702
14053414/18082305
14053414/1000026613
14053414/18082475
14053414/18085651
14053414/18082333
14053414/18082503
14053414/1000026625
14053414/18082363
14053414/1000026616
14053414/18082553
14053414/18085857
14053414/18082391
14053414/1000026617
14053414/18082825
14053414/18085887
14053414/18082419
14053414/1000026623
14053414/18082851
14053414/18082447
14053414/1000026622
14053414/18082877
14053414/18085917
14053414/18348904
14053414/1000026624
14053414/18082903
14053414/18085947
14090213/1000026638
14090213/1000026637
14090213/18085691
14090213/1000026643
14090213/1000026646
14090213/1000026645
14090213/1000026655
18087548/18107428
1000012585/1000016031
1000012585/1000018140
1000012585/1000018807
1000012585/1000015762
1000012585/1000015861
1000012585/1000013060
1000012585/1000018735
1000012585/1000019520
1000012585/1000016026
1000012585/1000018801
1000012585/1000019523
1000012585/1000020260
1000012585/1000019581
1000012585/1000019305
1000012585/1000019302
1000012585/1000019521
1000012585/1000019585
1000012585/1000019400
1000012585/1000019420
1000012585/1000019584
1000012585/1000019582
1000012585/1000019443
1000012585/1000019441
1000012585/1000019442
1000012585/1000016020
1000012585/1000016022
1000012585/1000018722
1000012585/1000016028
1000012585/1000015764
1000012585/1000016027
1000021427/1000022175
1000021427/1000022240
1000021427/1000022321
1000021427/1000022185
1000021427/1000022609
1000021427/1000022351
1000021427/1000022318
1000021427/1000022202
1000021427/1000022610
1000021427/1000022587
1000021427/1000022364
1000021427/1000022494
1000021427/1000022334
1000021427/1000022617
1000021427/1000022504
1000021427/1000022495
1000021427/1000022615
1000021427/1000022588
1000021427/1000022458
1000021427/1000022630
1000021427/1000022629
1000021427/1000022633
1000023032/1000023636
1000023032/1000023849
1000023032/1000023666
1000023032/1000023798
25/18235323
25/18235333
25/18235351
25/18235361
27/18330554
27/18332160
27/18239724
27/18239770
27/18490112
27/18332174
27/18239866
27/18239832
27/18239814
27/18491281
27/18332185
27/18490148
27/18491347
27/18239906
27/18491325
27/18490189
27/18332209
27/18491547
27/18239842
27/18239940
27/18332215
27/18239959
27/18239852
27/18240384
27/18239884
27/18239978
27/18239996
27/18240410
27/18240344
27/18240014
27/18240366
27/18240032
27/18240054
27/18517221
27/18517173
27/18240096
27/18240146
27/18240114
27/18240164
27/18240086
27/18240196
27/18240226
27/18240186
27/18240256
27/18534087
27/18240246
27/18240236
27/18240294
27/18240306
27/18534122
27/18240316
27/18534136
27/1000025083
27/1000025098
27/1000025114
27/1000025137
27/1000025080
27/1000025081
27/1000025099
27/1000025101
27/1000025140
27/1000025128
27/1000025125
27/1000025082
27/1000025100
27/1000025139
27/1000025126
27/1000025138
27/1000025127
27/1000025122
27/1000025119
614/18429856
614/18429830
614/1000025191
614/18429867
614/1000025192
614/18429894
614/1000025197
614/1000025198
614/1000025204
614/1000025203
614/18470832
614/18243848
29/1000025245
29/1000025248
29/18488488
29/1000025257
29/18434237
29/1000025210
29/18488528
29/1000025220
29/1000025230
29/1000025231
29/1000025256
29/1000025254
29/1000025255
29/1000025266
29/1000025267
29/1000025268
29/18434266
29/1000025209
29/18488568
29/1000025219
29/1000025229
29/1000025232
29/18434280
29/1000025211
29/18488608
29/1000025218
29/1000025227
29/1000025228
18376176/1000025277
18376176/18488356
18376176/18434403
18376176/1000025275
18376176/1000025284
18376176/1000025285
18376176/1000025287
18376176/18434409
18376176/1000025276
18376176/1000025286
17516974/18239050
17516974/18517540
1000001490/1000001559
1000001483/1000001630
1000001496/1000001600
1000019080/1000019160
1000019200/1000019640
1000019200/1000019201
1000019220/1000019221
1000019220/1000019620
1000019661/1000019660
1000019661/1000019680
1000008720/1000008721
1000008720/1000008722
1000008720/1000008729
162/1000023334
162/1000023348
162/17825708
162/1000023335
162/1000023349
162/17825846
162/1000023332
162/1000023347
162/17826032
162/1000023336
162/1000023350
162/17826245
162/1000023333
162/1000023351
162/17826435
261/1000023321
261/17831667
261/1000023320
261/17831961
261/1000023322
261/17832212
261/1000023323
261/17832464
165/1000023417
165/17828864
165/1000023420
165/17829192
165/17829520
165/17829848
163/17826613
163/17826803
1000021786/1000021784
1000021786/1000021785
166/1000023454
166/1000023446
166/17830176
166/1000023431
166/1000023455
166/1000023450
166/17830404
166/1000023435
166/1000023451
166/1000023448
166/17830696
166/1000023434
166/1000023453
166/1000023449
166/17830948
166/1000023433
166/1000023447
166/1000023452
166/17831200
166/1000023432
164/1000023416
164/17828105
164/1000023419
164/17828358
164/1000023418
164/17828611
627/18104046
629/18104098
150/18323453
150/18323261
150/18585122
150/18324836
150/18325059
150/18325266
150/18325465
80/18082185
18441253/18441303
18596730/18597007
1000007520/1000007523
1000007520/1000007583
1000007520/1000007580
18496673/18552624
18496673/18552626
17859573/17859593
632/18379582
18375748/18379356
18375748/1000020200
49/18281564
49/18281615
49/18281625
49/18529365
49/18529397
17519437/1000024232
17519437/17789311
17519437/17789715
17519437/18111246
17519437/1000025644
1000025077/1000024597
1000025077/1000024238
1000025077/1000024600
1000025077/1000024611
1000025077/1000024609
1000025077/1000024610
1000025077/1000025900
1000025077/1000025903
1000025077/1000025904
1000025074/1000024233
1000025074/17789513
1000025074/18095511
1000025074/18095406
1000025074/1000024592
1000025074/1000024239
1000025074/18347958
1000025074/1000024591
1000025074/18095461
1000025074/18101867
1000025074/18379075
1000025074/18095315
1000025074/1000025912
1000025074/1000025920
1000025074/18095503
1000025074/18095529
1000025074/18101903
1000025074/1000025909
1000025074/1000025927
1000025074/18095433
1000025074/1000025913
1000025074/1000025918
1000025074/1000025919
1000025074/17791715
1000026423/1000009260
1000026423/1000026426
13869258/18327315
13869258/18327372
13869258/18105966
13869258/18106068
13869258/18106326
13869258/1000000571
13869258/1000000572
13869258/1000000569
13869258/18106482
13869258/1000000570
13869258/1000000581
13869258/18398746
13869258/1000003096
13869258/1000000521
13869258/18398882
13869258/1000003095
13869258/18399050
13869258/1000003097
18496675/1000000428
17126041/1000007000
17126041/1000007001
17126041/1000007007
17126041/1000007006
17126041/1000007008
17126041/1000007009
14088906/1000027750
14088906/17765463
14088906/1000027749
14088906/17765622
14088906/17765781
754/18369502
754/18368383
754/1000027900
754/1000027903
754/18369243
754/18368666
754/18368925
1000009265/1000009267
1000009265/1000009266
1000009265/1000009263
1000008541/1000008540
1000008541/1000008542
1000008541/1000008550
1000008541/1000008557
1000008541/1000008585
1000008541/1000008549
1000008541/1000008558
1000008541/1000008556
1000008541/1000008581
1000008541/1000008583
1000008541/1000008555
1000008541/1000008584
1000008541/1000008582
1000008541/1000008580
1000008484/1000008480
1000008484/1000008485
1000008484/1000008481
1000008484/1000008482
1000008484/1000009463
1000008484/1000009461
1000008484/1000008486
1000008484/1000008483
1000008484/1000009462
1000008484/1000009460
1000008484/1000009465
1000008484/1000009464
1000008484/1000009479
1000008484/1000009481
1000008484/1000009480
1000008484/1000009478
1000008484/1000028823
1000008484/1000028824
1000008484/1000028820
1000030440/1000026120
1000030440/1000026124
1000030440/1000026131
1000030440/1000026123
1000030440/1000026130
1000030440/1000026129
149/1000028234
149/1000028254
149/1000028255
149/17762965
149/1000028251
149/1000028232
149/1000028235
149/1000028252
149/1000028256
149/1000028215
149/1000028253
149/1000028237
149/1000028211
149/1000028231
149/1000028230
149/17763125
149/1000028221
149/1000028120
149/1000028218
149/1000028220
149/1000028219
149/17763357
1000002922/1000002921
405
409
415
18016825
17126039
12
168
18496675
17126041
12/18515527
168/18376046
18496675/18552628
18496675/18552630
17126041/17758625
17126041/17758676

Equipment (406)
406
455
471
456
418
680
459
482
18265886
18279532
18295650
464
461
18312764
468
470
472
474
477
478
480
481
13866077
484
14079132
483
476
281
13000583
309
270
283
17480622
289
288
290
262
323
322
18265888
18279534
18295653
154
265
329
291
330
18312767
17268716
305
715
307
311
312
155
333
267
320
13866081
13866079
328
327
14080484
140
325
324
313
314
746
281/1000021682
281/1000001580
281/1000001576
281/1000001292
13000583/1000012261
13000583/1000001772
13000583/1000002898
309/1000012240
270/1000001744
283/18252346
283/18280522
283/18252506
17480622/1000005149
17480622/1000005148
17480622/18537402
17480622/18537887
289/18359786
289/1000024740
288/18349873
288/18547605
288/18547980
288/18548260
288/18502194
288/18502245
290/18230166
290/18339132
290/1000000175
262/1000005041
323/18315035
322/1000001318
322/18238486
322/18575000
322/18332637
322/1000030544
18265888/18265906
18265888/18429930
18265888/18370146
18279534/18366358
18279534/18279626
18279534/18279648
18279534/1000028346
18295653/18295666
18295653/18295903
18295653/18416406
154/1000019861
154/1000019862
265/18512591
329/1000025882
329/1000009980
329/1000021961
329/1000009563
291/18577904
291/1000000349
291/18592996
291/1000000255
330/14133735
330/18015786
18312767/1000012100
18312767/18436200
18312767/18316373
18312767/18560111
18312767/18313392
18312767/18490663
17268716/18375106
17268716/18375116
17268716/18375118
17268716/18375120
305/18506722
305/18341590
305/1000023263
305/1000007681
715/18089787
715/18089285
715/18107706
715/18232553
715/18092621
715/18093014
307/18549188
307/18256248
307/18256812
307/16919736
307/1000030400
311/1000006003
311/1000004496
311/1000004495
311/18371286
312/18244506
155/17818596
155/1000005145
155/18543170
155/18544426
155/18545743
155/18546249
333/17831465
267/18479404
267/18479400
267/18479402
320/14129604
13866081/18192466
13866081/18509152
13866081/18233686
13866081/18234906
13866081/18348371
13866079/17796875
13866079/18178846
13866079/18349061
328/14139182
328/18591262
327/18483684
327/18580971
327/18460666
14080484/18534112
140/18577576
325/18548328
325/18384155
325/18495203
324/18589879
324/18438276
324/18580422
324/18568699
324/18266766
324/18194126
324/1000028683
324/18366798
324/1000001147
313/17745745
313/1000024175
314/18576198
746/18576136
746/18576180
746/1000020940
746/1000021430
406
456
680
482
18279532
464
467
470
472
477
13866077
18315821
483
476
272
17480622
262
323
322
335
18279534
154
292
302
715
311
155
13866081
13866079
18317435
18316803
18315847
18316856
18316486
18317575
18317895
140
263
325
746
272/18400328
272/18400330
17480622/17824655
17480622/17517326
17480622/17517328
17480622/17517330
262/14140067
262/14140069
323/752787
323/752788
322/752769
322/18297074
335/752909
335/752910
18279534/18279637
154/18321886
154/1000001057
154/17434486
292/751871
292/751874
292/751870
292/751868
292/751869
292/751875
302/1000006209
715/18491041
311/13235031
155/18286393
155/18273026
13866081/13894254
13866079/13894244
13866079/18192446
18317435/18317489
18317435/18317502
18316803/18316828
18316803/18316843
18315847/18315869
18315847/18315903
18315847/18315850
18315847/18316087
18315847/18316166
18315847/18316216
18315847/18361906
18316856/18317150
18316486/18316685
18316486/18316761
18316486/18316494
18317575/18317749
18317575/18406506
18317575/18317803
18317575/18378439
18317895/18375846
18317895/18361926
18317895/18318042
18317895/18318113
140/18350910
140/18351213
140/18351423
263/18466709
263/18467233
263/18467930
325/1000027523
746/752590

